<?xml version="1.0" standalone="no"?>
<!DOCTYPE svg PUBLIC "-//W3C//DTD SVG 1.1//EN" "http://www.w3.org/Graphics/SVG/1.1/DTD/svg11.dtd" >
<svg xmlns="http://www.w3.org/2000/svg">
<metadata></metadata>
<defs>
<font id="gt_walsheimmedium" horiz-adv-x="1187" >
<font-face units-per-em="2048" ascent="1638" descent="-410" />
<missing-glyph horiz-adv-x="512" />
<glyph horiz-adv-x="0" />
<glyph horiz-adv-x="0" />
<glyph unicode="&#xd;" horiz-adv-x="512" />
<glyph unicode=" "  horiz-adv-x="512" />
<glyph unicode="&#x09;" horiz-adv-x="512" />
<glyph unicode="&#xa0;" horiz-adv-x="512" />
<glyph unicode="!" horiz-adv-x="632" d="M143 139q0 35 13.5 67t37 55.5t54.5 36.5t67 13q37 0 69 -13t55.5 -36.5t36.5 -55.5t13 -67t-13 -66.5t-36.5 -55t-55.5 -38t-69 -14.5t-67.5 14.5t-54 38t-37 55t-13.5 66.5zM195 457v977h243v-977h-243z" />
<glyph unicode="&#x22;" horiz-adv-x="796" d="M123 1264v204h211v-204l-53 -310h-105zM463 1264v204h211v-204l-53 -310h-105z" />
<glyph unicode="#" horiz-adv-x="1124" d="M59 418v172h207l35 254h-180v172h205l57 418h182l-57 -418h209l57 418h182l-57 -418h168v-172h-193l-34 -254h166v-172h-191l-59 -418h-181l58 418h-209l-59 -418h-181l58 418h-183zM449 590h208l35 254h-209z" />
<glyph unicode="$" horiz-adv-x="1314" d="M166 469h235q0 -141 78 -217t201 -76q49 0 92 15.5t75 44t50 68.5t18 89q0 55 -21.5 92t-55 61.5t-73.5 41t-77 28.5q-98 35 -184 71t-150.5 86t-101.5 122t-37 180q0 76 26.5 139.5t72.5 112.5t108.5 82t134.5 47v223h209v-221q76 -16 139.5 -54t110.5 -95.5t73.5 -130 t26.5 -158.5h-235q0 106 -60.5 171.5t-154.5 65.5q-88 0 -151.5 -45t-63.5 -137q0 -43 17 -76.5t47 -58.5t66.5 -43t77.5 -33q84 -31 171.5 -64.5t159 -83.5t116.5 -122t45 -174q0 -96 -29.5 -173t-82 -133.5t-122 -91t-151.5 -49.5v-219h-209v221q-82 14 -152.5 54.5 t-124 103t-84 147.5t-30.5 189z" />
<glyph unicode="%" horiz-adv-x="1945" d="M166 909v260q0 57 20.5 107.5t59.5 89.5t94 61.5t125 22.5t125 -22.5t94 -61.5t60.5 -89t21.5 -108v-260q0 -57 -21.5 -108t-60.5 -89t-94 -60.5t-125 -22.5t-125 22.5t-94 60.5t-59.5 89t-20.5 108zM346 909q0 -53 33 -91t86 -38q55 0 88 38t33 91v260q0 53 -33 91 t-88 38q-53 0 -86 -37.5t-33 -91.5v-260zM420 -2l895 1542l178 -102l-895 -1542zM1178 264v260q0 57 20.5 107.5t59 89.5t94 61.5t125.5 22.5t125 -22.5t94 -61.5t60.5 -89t21.5 -108v-260q0 -57 -21.5 -108.5t-60.5 -89t-94.5 -60t-124.5 -22.5q-70 0 -125.5 22.5t-94 60 t-59 89t-20.5 108.5zM1358 264q0 -53 32.5 -91t86.5 -38q55 0 87.5 38t32.5 91v260q0 53 -32.5 91t-87.5 38q-53 0 -86 -37.5t-33 -91.5v-260z" />
<glyph unicode="&#x26;" horiz-adv-x="1226" d="M90 430q0 61 17.5 108.5t48 85.5t72.5 68.5t91 57.5q-88 49 -141 117.5t-53 197.5q0 88 37 160.5t98.5 125t143 80t171.5 27.5q98 0 180.5 -32.5t142.5 -92t94 -141.5t34 -182h-235q0 106 -51.5 171.5t-174.5 65.5q-90 0 -147.5 -45t-57.5 -137q0 -43 10.5 -82t37 -66.5 t72.5 -44t120 -16.5v-209q-152 0 -213 -68.5t-61 -175.5q0 -41 17 -79.5t50 -69.5t81 -49.5t108 -18.5q49 0 95 19.5t82 56.5t58.5 91.5t22.5 123.5h-148v209h492v-209h-109q0 -121 -42 -214t-111.5 -156.5t-157.5 -97.5t-182 -34q-92 0 -180.5 31t-158 89.5t-111.5 142.5 t-42 192z" />
<glyph unicode="'" horiz-adv-x="456" d="M123 1264v204h211v-204l-53 -310h-105z" />
<glyph unicode="(" horiz-adv-x="798" d="M215 0v1124q0 100 36 191.5t101.5 161t157.5 109.5t207 40v-211q-61 0 -110.5 -23.5t-84.5 -63.5t-53 -92t-18 -112v-1124q0 -59 18 -111.5t53 -92.5t84 -63.5t111 -23.5v-211q-115 0 -207 40t-157.5 109.5t-101.5 160t-36 192.5z" />
<glyph unicode=")" horiz-adv-x="798" d="M82 -291q61 0 110.5 23.5t84 63.5t53 92.5t18.5 111.5v1124q0 59 -18.5 111.5t-53 92.5t-84 63.5t-110.5 23.5v211q113 0 206 -40t158.5 -109.5t101.5 -160.5t36 -192v-1124q0 -102 -36 -192.5t-101.5 -160t-158.5 -109.5t-206 -40v211z" />
<glyph unicode="*" horiz-adv-x="946" d="M82 1133l45 135l279 -94l-3 294h144l-6 -294l278 94l45 -135l-282 -89l178 -235l-117 -84l-170 242l-170 -242l-117 84l179 235z" />
<glyph unicode="+" d="M180 483v199h301v315h224v-315h303v-199h-303v-313h-224v313h-301z" />
<glyph unicode="," horiz-adv-x="595" d="M123 152q0 70 48 117.5t116 47.5q84 0 135 -58t51 -153q0 -94 -23.5 -159.5t-67.5 -106.5t-107.5 -59.5t-143.5 -18.5v105q53 0 89 11t61 30q23 20 34 43.5t15 48.5q-4 -4 -16.5 -8t-26.5 -4q-76 0 -120 48t-44 116z" />
<glyph unicode="-" horiz-adv-x="602" d="M61 483v199h480v-199h-480z" />
<glyph unicode="." horiz-adv-x="575" d="M123 152q0 70 48 117.5t116 47.5q70 0 118 -48t48 -117q0 -68 -48.5 -116t-117.5 -48q-68 0 -116 48t-48 116z" />
<glyph unicode="/" horiz-adv-x="927" d="M-2 -53l745 1732l205 -88l-745 -1732z" />
<glyph unicode="0" d="M90 477v479q0 100 36 191.5t101.5 161t157.5 109.5t207 40t208 -40t159.5 -109.5t102.5 -160.5t36 -192v-479q0 -102 -36 -192t-102.5 -160t-159.5 -110t-208 -40t-207 40t-157.5 110t-101.5 160t-36 192zM326 477q0 -59 18 -111.5t53 -92.5t84 -63.5t111 -23.5 q61 0 111.5 23.5t85 63.5t54 92.5t19.5 111.5v479q0 59 -19.5 111.5t-54 92.5t-85 63.5t-111.5 23.5t-110.5 -23.5t-84.5 -63.5t-53 -92t-18 -112v-479z" />
<glyph unicode="1" horiz-adv-x="749" d="M61 1010v186q98 0 160 13.5t96.5 41t47 72.5t12.5 111h223v-1434h-244v1010h-295z" />
<glyph unicode="2" horiz-adv-x="1079" d="M96 0q0 170 29 284.5t80 194.5t121.5 135.5t152.5 108.5q47 29 97.5 59.5t91.5 68.5t67.5 86t26.5 114q0 104 -59.5 150t-147.5 46q-92 0 -157.5 -56t-65.5 -181h-236q0 109 38 192.5t102.5 140t147.5 86t173 29.5q92 0 173 -26.5t140.5 -81t93 -135t33.5 -187.5 q0 -98 -47 -176t-110.5 -136.5t-128 -99.5t-99.5 -65q-78 -55 -126 -96t-74.5 -78t-35.5 -76t-9 -90h622v-211h-893z" />
<glyph unicode="3" horiz-adv-x="1165" d="M68 479h235q0 -70 21.5 -124t58.5 -92t87 -57.5t108 -19.5q55 0 100 18.5t75.5 49.5t47 72t16.5 84q0 51 -13 94t-43 74.5t-79 50t-123 18.5h-96v209h98q127 0 174 58.5t47 150.5t-56 137t-146 45q-127 0 -177.5 -65.5t-50.5 -171.5h-235q0 100 32.5 182t92 141.5 t141.5 92t180 32.5q92 0 175 -27.5t144.5 -80t98.5 -125t37 -160.5q0 -123 -54.5 -201t-140.5 -114q98 -39 164 -120t66 -218q0 -98 -39 -178t-104.5 -137.5t-154.5 -89.5t-188 -32q-98 0 -188 34t-158.5 98.5t-110.5 157.5t-42 214z" />
<glyph unicode="4" horiz-adv-x="1144" d="M133 430v1004h236v-793h286v430h236v-430h196v-211h-196v-430h-236v430h-522z" />
<glyph unicode="5" horiz-adv-x="1241" d="M131 477h236q0 -59 18 -111.5t53 -92.5t84 -63.5t111 -23.5q61 0 111.5 23.5t86 63.5t54 92.5t18.5 111.5t-18.5 111.5t-54 92.5t-86 63.5t-111.5 23.5q-78 0 -139.5 -38t-102.5 -120h-235v824h870v-211h-659v-398q23 41 59.5 70t79.5 47.5t87 26.5t81 8q115 0 202 -40 t145 -108.5t88 -159.5t30 -192q0 -102 -36 -192t-102.5 -160t-159.5 -110t-208 -40t-207 40t-157.5 110t-101.5 160t-36 192z" />
<glyph unicode="6" horiz-adv-x="1165" d="M76 477q0 82 24.5 157t65.5 140l412 660h270l-301 -457q10 2 31 2q115 0 208 -40t159.5 -109.5t102 -160.5t35.5 -192q0 -102 -35.5 -192t-102 -160t-159.5 -110t-208 -40t-207 40t-158 110t-101.5 160t-35.5 192zM311 477q0 -59 18.5 -111.5t53.5 -92.5t84.5 -63.5 t110.5 -23.5t111 23.5t85 63.5t54.5 92.5t19.5 111.5t-19.5 111.5t-54.5 92.5t-85 63.5t-111 23.5t-110.5 -23.5t-84.5 -63.5t-53.5 -92t-18.5 -112z" />
<glyph unicode="7" horiz-adv-x="980" d="M78 1223v211h913l-610 -1434h-250l528 1223h-581z" />
<glyph unicode="8" horiz-adv-x="1206" d="M113 414q0 51 12 103t37.5 98.5t64.5 83t95 55.5q-96 43 -135.5 127t-39.5 170q0 82 31 156.5t90.5 130t143.5 88t192 32.5q106 0 191.5 -32.5t143.5 -89t89 -130t31 -155.5q0 -86 -39 -170t-135 -127q55 -18 94 -55t64.5 -84.5t38 -99.5t12.5 -101q0 -86 -34 -165 t-96.5 -140.5t-153.5 -97.5t-206 -36t-206 35t-154.5 95.5t-97 139.5t-33.5 169zM348 414q0 -47 17.5 -88t50.5 -72t81 -49.5t107 -18.5t106.5 18.5t80 50.5t50 73t17.5 86q0 43 -16.5 85t-49 73.5t-79.5 51t-109 19.5q-61 0 -109.5 -18.5t-81 -50t-49 -73.5t-16.5 -87z M383 1040q0 -43 15.5 -80.5t43 -66.5t68.5 -45.5t94 -16.5q51 0 92 17.5t69 46.5t43 66.5t15 78.5t-15 78t-43 65.5t-69 46t-92 17.5q-53 0 -94 -16.5t-68.5 -45t-43 -66.5t-15.5 -79z" />
<glyph unicode="9" horiz-adv-x="1165" d="M82 956q0 100 36 191.5t101.5 161t159.5 109.5t209 40q113 0 206 -40t158.5 -109.5t101.5 -160.5t36 -192q0 -84 -26 -157.5t-67 -139.5l-409 -659h-271l301 455q-123 0 -221 37.5t-168.5 104.5t-108.5 159t-38 200zM317 956q0 -59 19.5 -111t54.5 -92t85 -63.5 t112 -23.5q61 0 110.5 23.5t84 63.5t53 92t18.5 111t-18.5 111.5t-53 92.5t-84 63.5t-110.5 23.5t-111.5 -23.5t-85.5 -63.5t-54.5 -92t-19.5 -112z" />
<glyph unicode=":" horiz-adv-x="575" d="M123 152q0 70 48 117.5t116 47.5q70 0 118 -48t48 -117q0 -68 -48.5 -116t-117.5 -48q-68 0 -116 48t-48 116zM123 825q0 70 48 118t116 48q70 0 118 -48t48 -118q0 -68 -48.5 -115.5t-117.5 -47.5q-68 0 -116 47.5t-48 115.5z" />
<glyph unicode=";" horiz-adv-x="595" d="M123 152q0 70 48 117.5t116 47.5q84 0 135 -58t51 -153q0 -94 -23.5 -159.5t-67.5 -106.5t-107.5 -59.5t-143.5 -18.5v105q53 0 89 11t61 30q23 20 34 43.5t15 48.5q-4 -4 -16.5 -8t-26.5 -4q-76 0 -120 48t-44 116zM123 825q0 70 48 118t116 48q70 0 118 -48t48 -118 q0 -68 -48.5 -115.5t-117.5 -47.5q-68 0 -116 47.5t-48 115.5z" />
<glyph unicode="&#x3c;" d="M76 502v157l1038 361v-211l-708 -227l708 -230v-211z" />
<glyph unicode="=" d="M180 322v198h828v-198h-828zM180 641v199h828v-199h-828z" />
<glyph unicode="&#x3e;" d="M74 141v211l708 230l-708 227v211l1038 -361v-157z" />
<glyph unicode="?" horiz-adv-x="1046" d="M49 1010q0 109 37 192.5t98.5 140t143.5 86t172 29.5q92 0 174 -28.5t143.5 -81t97 -127t35.5 -166.5q0 -72 -22.5 -128.5t-56 -100.5t-71.5 -76.5t-67 -57.5q-51 -41 -80.5 -70.5t-45 -61.5t-20.5 -73t-5 -102h-226q0 68 6.5 123t23.5 102t48 89t82 79q31 23 65.5 50.5 t64.5 61.5t49.5 75t19.5 90q0 98 -60.5 145t-154.5 47q-43 0 -82 -13t-69 -43t-47 -75t-17 -106h-236zM297 139q0 35 13.5 67t37 55.5t54 36.5t67.5 13t68.5 -13t55 -36.5t37 -55.5t13.5 -67t-13.5 -66.5t-37 -55t-55 -38t-68.5 -14.5t-67.5 14.5t-54 38t-37 55t-13.5 66.5z " />
<glyph unicode="@" horiz-adv-x="1697" d="M41 422q0 193 64.5 348.5t173 263t252 165.5t303.5 58q195 0 355.5 -50t276 -143t179 -226t63.5 -299q0 -160 -24.5 -274.5t-71.5 -187.5t-114.5 -106.5t-156.5 -33.5q-109 0 -172 58t-92 136q-37 -59 -107.5 -94t-140.5 -35q-92 0 -167.5 34t-130 91t-84 134t-29.5 161 q0 86 29.5 161.5t84 134t130 92.5t167.5 34q70 0 140.5 -34t107.5 -95v108h187v-534q0 -92 26.5 -138.5t85.5 -46.5q27 0 52.5 18.5t46 67t33 132.5t12.5 217q0 125 -50.5 227t-141.5 174t-217 111t-277 39q-121 0 -231.5 -46.5t-193.5 -132.5t-132.5 -209.5t-49.5 -279.5 q0 -125 44 -244t132.5 -211t220.5 -148.5t308 -56.5q57 0 123.5 6.5t138.5 21.5t144.5 40t142.5 64l90 -146q-80 -45 -164 -74.5t-167 -47t-162 -25t-146 -7.5q-223 0 -390 71t-278.5 186.5t-167 264t-55.5 306.5zM606 422q0 -51 16.5 -97t47 -80t73 -54.5t95.5 -20.5 q55 0 99 20.5t74.5 54.5t48 80t17.5 97t-17.5 98t-48 81t-74.5 54.5t-99 20.5q-53 0 -95.5 -20.5t-73 -54.5t-47 -81t-16.5 -98z" />
<glyph unicode="A" horiz-adv-x="1169" d="M6 0l496 1434h166l495 -1434h-248l-61 182h-539l-61 -182h-248zM387 393h395l-196 649z" />
<glyph unicode="B" horiz-adv-x="1224" d="M150 0v1434h489q147 0 237.5 -43t140.5 -105.5t66.5 -133.5t16.5 -126q0 -74 -21.5 -127t-55.5 -89t-74 -56.5t-77 -28.5q31 -8 73 -27.5t79 -55.5t62.5 -91t25.5 -135q0 -55 -16.5 -128t-66.5 -136.5t-140 -107.5t-238 -44h-501zM385 211h266q72 0 116 21.5t68.5 53 t33 66.5t8.5 64q0 27 -9.5 62.5t-35 67.5t-68.5 53.5t-111 21.5h-268v-410zM385 831h254q72 0 116 20.5t68.5 50.5t32.5 63.5t8 60.5t-8 60.5t-32.5 64.5t-68.5 51.5t-116 20.5h-254v-392z" />
<glyph unicode="C" horiz-adv-x="1587" d="M78 719q0 145 50 280.5t145.5 239.5t229.5 166.5t304 62.5q160 0 283.5 -44t212 -118.5t140.5 -176t68 -218.5h-247q-12 74 -48 137.5t-90.5 109.5t-127 72.5t-160.5 26.5q-123 0 -220.5 -45t-163 -119.5t-100.5 -172t-35 -201.5q0 -111 36 -209t104.5 -173t170 -118 t232.5 -43q61 0 124 21.5t116 59.5t93 90t58 114h258q-25 -104 -84 -194.5t-147 -158t-202.5 -105.5t-246.5 -38q-176 0 -315 61.5t-236.5 165t-149.5 239.5t-52 288z" />
<glyph unicode="D" horiz-adv-x="1435" d="M150 0v1434h464q178 0 316.5 -61.5t234 -162t144.5 -229.5t49 -264t-49 -264t-144.5 -229.5t-233.5 -162t-317 -61.5h-464zM385 211h229q119 0 213.5 43t158 113.5t97 162t33.5 187.5t-33.5 187t-97 162t-158 114t-213.5 43h-229v-1012z" />
<glyph unicode="E" horiz-adv-x="1116" d="M150 0v1434h827v-211h-592v-406h592v-211h-592v-395h592v-211h-827z" />
<glyph unicode="F" horiz-adv-x="1101" d="M150 0v1434h827v-211h-592v-455h592v-211h-592v-557h-235z" />
<glyph unicode="G" horiz-adv-x="1716" d="M78 717q0 145 51 281.5t147.5 240.5t232.5 166.5t306 62.5q127 0 234.5 -36.5t188.5 -100t130 -148.5t57 -179h-237q-10 53 -41 99t-80 81t-113.5 54t-138.5 19q-115 0 -207 -45t-156.5 -119.5t-98.5 -173t-34 -202.5t33 -202.5t98.5 -173.5t164 -120t231.5 -45 q92 0 164.5 26.5t125 73t85 106.5t43.5 126h-275v211h682v-211h-158q-25 -121 -81 -220.5t-143 -171t-205.5 -111.5t-268.5 -40q-176 0 -313 62.5t-231.5 167t-143.5 240.5t-49 282z" />
<glyph unicode="H" horiz-adv-x="1361" d="M150 0v1434h235v-617h592v617h235v-1434h-235v606h-592v-606h-235z" />
<glyph unicode="I" horiz-adv-x="542" d="M150 0v1434h243v-1434h-243z" />
<glyph unicode="J" horiz-adv-x="1097" d="M25 467h235q0 -129 56.5 -210t172.5 -81q117 0 175.5 80t58.5 209v969h235v-969q0 -104 -30.5 -195.5t-91 -159t-147.5 -106.5t-200 -39q-111 0 -197.5 39t-146 107.5t-90 159.5t-30.5 196z" />
<glyph unicode="K" horiz-adv-x="1243" d="M150 0v1434h235v-631l533 631h294l-606 -717l606 -717h-294l-533 629v-629h-235z" />
<glyph unicode="L" horiz-adv-x="878" d="M150 0v1434h235v-1223h442v-211h-677z" />
<glyph unicode="M" horiz-adv-x="1665" d="M150 0v1434h225l459 -1067l456 1067h226v-1434h-236v887l-358 -887h-179l-358 887v-887h-235z" />
<glyph unicode="N" horiz-adv-x="1359" d="M150 0v1434h258l567 -1020v1020h235v-1434h-258l-567 1020v-1020h-235z" />
<glyph unicode="O" horiz-adv-x="1638" d="M78 717q0 145 51 281.5t146.5 240.5t233.5 166.5t310 62.5t310.5 -62.5t233.5 -166.5t146.5 -240.5t51.5 -281.5t-51.5 -281.5t-146.5 -241t-233.5 -167t-310.5 -62.5t-310 62.5t-233.5 167t-146.5 240.5t-51 282zM326 717q0 -104 33.5 -201.5t98 -173.5t155.5 -121 t206 -45t206 45t155.5 121t98.5 173t34 202q0 104 -34 201.5t-98.5 173t-155.5 120.5t-206 45t-206 -45t-155.5 -120.5t-98 -173t-33.5 -201.5z" />
<glyph unicode="P" horiz-adv-x="1220" d="M150 0v1434h514q115 0 208 -40t159.5 -110t102 -161t35.5 -191q0 -102 -35.5 -192.5t-102 -160t-160 -109.5t-207.5 -40h-279v-430h-235zM385 641h279q61 0 111 23.5t85 63.5t54.5 92t19.5 112q0 59 -19.5 111.5t-54.5 92.5t-85 63.5t-111 23.5h-279v-582z" />
<glyph unicode="Q" horiz-adv-x="1638" d="M78 717q0 145 51 281.5t146.5 240.5t233.5 166.5t310 62.5t310.5 -62.5t233.5 -166.5t146.5 -240.5t51.5 -281.5q0 -117 -33 -227.5t-95.5 -205t-153.5 -167t-206 -111.5l123 -172l-207 -104l-172 235q-172 0 -309 63.5t-232.5 168t-146.5 239.5t-51 281zM326 717 q0 -104 33.5 -201.5t98 -173.5t155.5 -121t206 -45t206 45t155.5 121t98.5 173t34 202q0 104 -34 201.5t-98.5 173t-155.5 120.5t-206 45t-206 -45t-155.5 -120.5t-98 -173t-33.5 -201.5z" />
<glyph unicode="R" horiz-adv-x="1247" d="M150 0v1434h514q115 0 208 -40t159.5 -110t102 -161t35.5 -191q0 -78 -20.5 -148.5t-60 -131t-96 -108.5t-126.5 -77l285 -467h-268l-262 430h-236v-430h-235zM385 641h279q61 0 111 23.5t85 63.5t54.5 92t19.5 112q0 59 -19.5 111.5t-54.5 92.5t-85 63.5t-111 23.5h-279 v-582z" />
<glyph unicode="S" horiz-adv-x="1165" d="M86 469h236q0 -141 77.5 -217t200.5 -76q49 0 92 15.5t75 43t50.5 66.5t18.5 88q0 55 -21.5 92t-55.5 62.5t-74 43t-77 29.5q-98 35 -184 71t-150.5 86t-101.5 122t-37 180q0 88 36 161t96.5 125t141 79.5t171.5 27.5q96 0 180 -32.5t145.5 -92t96 -141.5t34.5 -182h-235 q0 106 -57.5 171.5t-157.5 65.5q-88 0 -151.5 -45t-63.5 -137q0 -43 17.5 -76.5t47 -58.5t66.5 -43t78 -33q84 -31 171 -65.5t158.5 -85.5t116.5 -123t45 -174q0 -111 -39 -195t-106.5 -141t-156.5 -86t-189 -29q-98 0 -187.5 34t-157 98.5t-108.5 157.5t-41 214z" />
<glyph unicode="T" horiz-adv-x="987" d="M20 1223v211h947v-211h-357v-1223h-235v1223h-355z" />
<glyph unicode="U" horiz-adv-x="1310" d="M139 479v955h236v-955q0 -61 19.5 -116.5t56 -96.5t88 -65.5t114.5 -24.5t115.5 24.5t89.5 65.5t57.5 96.5t20.5 116.5v955h235v-955q0 -104 -36.5 -197.5t-104 -164t-163 -111.5t-214.5 -41q-117 0 -211 41t-161.5 111.5t-104.5 164t-37 197.5z" />
<glyph unicode="V" horiz-adv-x="1165" d="M4 1434h248l332 -1043l329 1043h248l-495 -1434h-166z" />
<glyph unicode="W" horiz-adv-x="2013" d="M10 1434h248l330 -1022l332 1022h174l331 -1022l330 1022h248l-496 -1434h-170l-329 1022l-332 -1022h-170z" />
<glyph unicode="X" horiz-adv-x="1150" d="M16 0l426 717l-426 717h267l292 -514l293 514h267l-426 -717l426 -717h-267l-293 512l-292 -512h-267z" />
<glyph unicode="Y" horiz-adv-x="1232" d="M23 1434h272l383 -617l307 617h258l-711 -1434h-258l285 573z" />
<glyph unicode="Z" horiz-adv-x="1181" d="M27 0l743 1223h-700v211h1091l-743 -1223h739v-211h-1130z" />
<glyph unicode="[" horiz-adv-x="727" d="M150 -479v2107h413v-198h-190v-1713h190v-196h-413z" />
<glyph unicode="\" horiz-adv-x="927" d="M-2 1591l205 88l745 -1732l-205 -88z" />
<glyph unicode="]" horiz-adv-x="727" d="M164 -283h190v1710h-190v199h414v-2105h-414v196z" />
<glyph unicode="^" horiz-adv-x="1327" d="M123 662l459 874h155l467 -874h-252l-290 591l-295 -591h-244z" />
<glyph unicode="_" horiz-adv-x="1146" d="M61 -102h1024v-154h-1024v154z" />
<glyph unicode="`" horiz-adv-x="1173" d="M244 1335l106 174l510 -280l-106 -174z" />
<glyph unicode="a" horiz-adv-x="1234" d="M78 477q0 100 36 191.5t100.5 161t154.5 109.5t198 40q84 0 167 -41t128 -113v129h223v-954h-223v129q-45 -72 -128 -113t-167 -41q-109 0 -198.5 40t-154 110t-100.5 160t-36 192zM301 477q0 -61 19.5 -116.5t56.5 -96.5t88.5 -65.5t114.5 -24.5t115.5 24.5t89 65.5 t57 96.5t20.5 116.5t-20.5 116.5t-57 96.5t-89 65.5t-115.5 24.5t-114.5 -24.5t-88.5 -65.5t-56.5 -96t-19.5 -117z" />
<glyph unicode="b" horiz-adv-x="1239" d="M150 0v1434h223v-609q45 72 128 113t167 41q109 0 198.5 -40t154 -109.5t100.5 -160.5t36 -192q0 -102 -36 -192t-100.5 -160t-154.5 -110t-198 -40q-84 0 -167 41t-128 113v-129h-223zM373 477q0 -61 19.5 -116.5t56 -96.5t88.5 -65.5t118 -24.5q63 0 114.5 24.5 t88.5 65.5t56.5 96.5t19.5 116.5t-19.5 116.5t-56.5 96.5t-88 65.5t-115 24.5q-66 0 -118 -24.5t-88.5 -65.5t-56 -96t-19.5 -117z" />
<glyph unicode="c" horiz-adv-x="1093" d="M82 477q0 96 30.5 187.5t91 161t148.5 111.5t205 42t200 -33t137 -85t82 -118.5t34 -136.5h-224q-10 78 -60 126t-165 48q-66 0 -113 -24.5t-79.5 -66.5t-48 -96t-15.5 -116q0 -61 15.5 -116.5t48 -96.5t84 -65.5t122.5 -24.5q98 0 144.5 41t68.5 113h224 q-12 -74 -45 -138.5t-89.5 -112.5t-135 -75t-183.5 -27q-117 0 -206 42t-149.5 112t-91 160t-30.5 188z" />
<glyph unicode="d" horiz-adv-x="1234" d="M78 477q0 100 36 191.5t100.5 161t154.5 109.5t198 40q84 0 167 -41t128 -113v609h223v-1434h-223v129q-45 -72 -128 -113t-167 -41q-109 0 -198.5 40t-154 110t-100.5 160t-36 192zM301 477q0 -61 19.5 -116.5t56.5 -96.5t88.5 -65.5t114.5 -24.5t115.5 24.5t89 65.5 t57 96.5t20.5 116.5t-20.5 116.5t-57 96.5t-89 65.5t-115.5 24.5t-114.5 -24.5t-88.5 -65.5t-56.5 -96t-19.5 -117z" />
<glyph unicode="e" horiz-adv-x="1087" d="M82 477q0 106 31.5 198.5t91 160t147.5 105.5t201 38q92 0 173 -33t141.5 -91t94 -136t33.5 -170q0 -25 -1 -58.5t-9 -80.5h-676q0 -51 14.5 -96.5t44 -79t77 -53t114.5 -19.5q47 0 81 10t57.5 26.5t39 40t25.5 48.5h225q-12 -61 -46 -117.5t-88 -99.5t-128 -69t-166 -26 q-121 0 -210 42t-148.5 112t-89 160t-29.5 188zM311 575h467q0 100 -64.5 159t-166.5 59q-98 0 -167 -55.5t-69 -162.5z" />
<glyph unicode="f" horiz-adv-x="735" d="M41 768v186h195v119q0 137 37.5 212t92 111t114 43t100.5 7q43 0 76.5 -7t52.5 -18v-188q-23 6 -47.5 10t-51.5 4t-53.5 -2t-48 -16.5t-35.5 -45t-14 -85.5v-144h250v-186h-250v-768h-223v768h-195z" />
<glyph unicode="g" horiz-adv-x="1228" d="M78 477q0 100 36 191.5t100.5 161t154.5 109.5t198 40q84 0 167 -41t128 -113v129h223v-1001q0 -121 -34.5 -207t-101 -141.5t-161 -81t-213.5 -25.5t-206.5 34t-147 89t-91.5 126t-36 144h225q8 -78 72 -136t184 -58q135 0 211 60.5t76 195.5v176q-45 -72 -128 -113 t-167 -41q-109 0 -198.5 40t-154 110t-100.5 160t-36 192zM301 477q0 -61 19.5 -116.5t56.5 -96.5t88 -65.5t115 -24.5q63 0 115.5 24.5t89 65.5t57 96.5t20.5 116.5t-20.5 116.5t-57 96.5t-89 65.5t-115.5 24.5t-114.5 -24.5t-88.5 -65.5t-56.5 -96t-19.5 -117z" />
<glyph unicode="h" horiz-adv-x="1165" d="M150 0v1434h223v-613q45 78 125 118t186 40q104 0 175 -35t112 -94q35 -53 48 -118.5t13 -164.5v-567h-223v494q0 61 -10.5 114.5t-34 91t-63 60t-99.5 22.5q-117 0 -173 -83t-56 -205v-494h-223z" />
<glyph unicode="i" horiz-adv-x="612" d="M141 1303q0 70 48.5 117.5t115.5 47.5q70 0 118 -48t48 -117q0 -68 -48 -116t-118 -48q-68 0 -116 48t-48 116zM195 0v954h223v-954h-223z" />
<glyph unicode="j" horiz-adv-x="604" d="M41 -293q33 -8 48 -10t30 -2q35 0 53 21.5t18 74.5v1163h224v-1177q0 -80 -17.5 -133.5t-46 -85t-64.5 -45t-73 -13.5q-53 0 -101.5 6.5t-70.5 16.5v184zM137 1303q0 70 48 117.5t116 47.5q70 0 118 -48t48 -117q0 -68 -48 -116t-118 -48q-68 0 -116 48t-48 116z" />
<glyph unicode="k" horiz-adv-x="1021" d="M150 0v1434h223v-902l350 422h278l-397 -477l397 -477h-278l-350 420v-420h-223z" />
<glyph unicode="l" horiz-adv-x="522" d="M150 0v1434h223v-1434h-223z" />
<glyph unicode="m" horiz-adv-x="1712" d="M150 0v954h223v-133q31 66 101.5 112t164.5 46q131 0 200.5 -49t100.5 -121q35 72 112.5 121t180.5 49q106 0 174 -34t105.5 -87t51 -119.5t13.5 -134.5v-604h-223v535q0 115 -42 181t-136 66q-43 0 -79 -14t-63.5 -49t-43 -91.5t-15.5 -142.5v-485h-223v537 q0 115 -40 180t-134 65q-43 0 -80 -14t-64.5 -49t-44 -91.5t-16.5 -142.5v-485h-223z" />
<glyph unicode="n" horiz-adv-x="1165" d="M150 0v954h223v-133q45 78 125 118t186 40q104 0 175 -35t112 -94q35 -53 48 -118.5t13 -164.5v-567h-223v494q0 61 -10.5 114.5t-34 91t-63 60t-99.5 22.5q-117 0 -173 -83t-56 -205v-494h-223z" />
<glyph unicode="o" horiz-adv-x="1163" d="M78 477q0 100 36 191.5t101.5 161t157.5 109.5t207 40t208 -40t159.5 -109.5t102 -160.5t35.5 -192q0 -102 -35.5 -192t-102 -160t-159.5 -110t-208 -40t-207 40t-157.5 110t-101.5 160t-36 192zM301 477q0 -61 19.5 -116.5t56.5 -96.5t88.5 -65.5t114.5 -24.5 t115.5 24.5t89 65.5t57 96.5t20.5 116.5t-20.5 116.5t-57 96.5t-89 65.5t-115.5 24.5t-114.5 -24.5t-88.5 -65.5t-56.5 -96t-19.5 -117z" />
<glyph unicode="p" horiz-adv-x="1239" d="M150 -479v1433h223v-129q45 72 128 113t167 41q109 0 198.5 -40t154 -109.5t100.5 -160.5t36 -192q0 -102 -36 -192t-100.5 -160t-154.5 -110t-198 -40q-84 0 -167 41t-128 113v-608h-223zM373 477q0 -61 19.5 -116.5t56 -96.5t89 -65.5t117.5 -24.5q63 0 114.5 24.5 t88.5 65.5t56.5 96.5t19.5 116.5t-19.5 116.5t-56.5 96.5t-88.5 65.5t-114.5 24.5q-66 0 -118 -24.5t-88.5 -65.5t-56 -96t-19.5 -117z" />
<glyph unicode="q" horiz-adv-x="1239" d="M82 477q0 100 36 191.5t100.5 161t154.5 109.5t198 40q84 0 167 -41t128 -113v129h224v-1433h-224v608q-45 -72 -128 -113t-167 -41q-109 0 -198.5 40t-154 110t-100.5 160t-36 192zM305 477q0 -61 19.5 -116.5t56.5 -96.5t88 -65.5t115 -24.5q63 0 115.5 24.5t89 65.5 t57 96.5t20.5 116.5t-20.5 116.5t-57 96.5t-89 65.5t-115.5 24.5t-114.5 -24.5t-88.5 -65.5t-56.5 -96t-19.5 -117z" />
<glyph unicode="r" horiz-adv-x="774" d="M150 0v954h223v-153q16 33 46 62.5t69.5 53t86 37t93.5 13.5q53 0 88 -15v-204q-27 6 -44.5 8t-43.5 2q-143 0 -219 -83t-76 -263v-412h-223z" />
<glyph unicode="s" horiz-adv-x="929" d="M74 322h217q0 -94 52 -132t132 -38q66 0 111 24.5t45 85.5q0 33 -18.5 53.5t-55.5 38t-92 36t-131 46.5q-49 18 -91 40t-73 50.5t-47.5 71.5t-16.5 104q0 68 29 119t78 87t113.5 53.5t138.5 17.5q76 0 142.5 -24.5t115.5 -67.5t77.5 -102.5t28.5 -129.5h-217 q0 68 -35.5 108t-117.5 40q-57 0 -97 -26.5t-40 -78.5q0 -31 16 -50t49 -34.5t82 -32.5t115 -42q49 -18 96 -39t84 -51.5t58.5 -73.5t21.5 -109q0 -74 -30 -129t-82 -91t-121.5 -53.5t-147.5 -17.5t-147.5 22.5t-124 67t-86 109t-31.5 148.5z" />
<glyph unicode="t" horiz-adv-x="718" d="M41 768v186h162v289h223v-289h219v-186h-219v-393q0 -61 9 -98t27.5 -56.5t44 -26t58.5 -6.5q27 0 62 2.5t51 6.5v-197q-27 -4 -72 -8t-94 -4q-41 0 -94 7t-101.5 40t-81 100.5t-32.5 188.5v444h-162z" />
<glyph unicode="u" horiz-adv-x="1165" d="M133 387v567h223v-493q0 -61 10.5 -114.5t34 -91.5t63.5 -60.5t99 -22.5q117 0 173.5 83t56.5 206v493h223v-954h-223v133q-45 -78 -125 -118t-187 -40q-104 0 -174.5 35t-111.5 94q-35 53 -48.5 119t-13.5 164z" />
<glyph unicode="v" horiz-adv-x="1011" d="M2 954h240l262 -635l266 635h240l-432 -954h-150z" />
<glyph unicode="w" horiz-adv-x="1542" d="M0 954h240l206 -604l216 604h219l215 -604l207 604h239l-371 -954h-149l-250 713l-252 -713h-149z" />
<glyph unicode="x" horiz-adv-x="913" d="M16 0l312 481l-305 473h258l176 -299l176 299h258l-305 -473l311 -481h-258l-182 307l-183 -307h-258z" />
<glyph unicode="y" horiz-adv-x="1183" d="M133 -109h217q2 -80 56.5 -137t171.5 -57q121 0 180 58.5t59 199.5v178q-45 -78 -125 -118t-186 -40q-104 0 -175 35t-112 94q-35 53 -48 119t-13 164v567h223v-493q0 -61 10 -114.5t34 -91.5t63.5 -60.5t99.5 -22.5q117 0 173 83t56 206v493h223v-999 q0 -244 -127.5 -350.5t-363.5 -106.5q-92 0 -168 32t-131 86t-86 126t-31 149z" />
<glyph unicode="z" horiz-adv-x="897" d="M45 0l453 756h-441v198h811l-450 -755h450v-199h-823z" />
<glyph unicode="{" horiz-adv-x="942" d="M164 457v182q25 0 57.5 9t61 30.5t49 54.5t20.5 82v526q0 72 25.5 125.5t65.5 89t90.5 53t99.5 17.5h145v-168h-90q-37 0 -58.5 -14t-33.5 -37t-15 -49.5t-3 -52.5v-521q0 -66 -24 -109.5t-55.5 -70t-66.5 -39t-57 -14.5q23 -4 57.5 -15.5t66 -38t55.5 -74.5t24 -126 v-455q0 -25 3 -52.5t15 -50t33.5 -36.5t58.5 -14h90v-168h-145q-49 0 -99.5 17.5t-90.5 52t-65.5 89t-25.5 125.5v461q0 53 -20.5 89t-49 58.5t-61.5 33t-57 10.5z" />
<glyph unicode="|" horiz-adv-x="522" d="M150 -479v2105h223v-2105h-223z" />
<glyph unicode="}" horiz-adv-x="942" d="M164 -311h90q37 0 58.5 14t33.5 36.5t15.5 50.5t3.5 52v455q0 78 22.5 126t55 74.5t67.5 38t57 15.5q-23 2 -57.5 14.5t-67 39t-55 70.5t-22.5 109v521q0 27 -3.5 53t-15.5 49t-33.5 37t-58.5 14h-90v168h145q49 0 99.5 -17.5t90.5 -53t65.5 -89t25.5 -125.5v-526 q0 -49 20.5 -82t49 -54.5t61.5 -30.5t57 -9v-182q-25 0 -57.5 -10.5t-61 -33t-49 -58.5t-20.5 -89v-461q0 -72 -25.5 -126t-65.5 -88.5t-90.5 -52t-99.5 -17.5h-145v168z" />
<glyph unicode="~" horiz-adv-x="1079" d="M82 395v191q51 68 112.5 94.5t114.5 26.5q55 0 116.5 -19.5t125.5 -46.5q59 -25 118.5 -49.5t102.5 -24.5q70 0 127 36t98 77v-191q-51 -68 -112.5 -94t-114.5 -26q-59 0 -113.5 19.5t-107.5 47.5q-53 29 -114.5 50.5t-135.5 21.5q-63 0 -119.5 -36t-97.5 -77z" />
<glyph unicode="&#xa1;" horiz-adv-x="632" d="M154 1290q0 70 49 119t116 49q70 0 119 -49t49 -119q0 -68 -49 -117t-119 -49q-68 0 -116.5 49t-48.5 117zM199 0v967h243v-967h-243z" />
<glyph unicode="&#xa2;" d="M119 715q0 86 23.5 167t70.5 146.5t116.5 112.5t162.5 65v224h208v-222q88 -14 151.5 -50t104.5 -86t63.5 -108.5t27.5 -119.5h-224q-10 78 -60 126t-165 48q-66 0 -113 -24.5t-79.5 -66.5t-48 -96.5t-15.5 -115.5t15.5 -116.5t48 -96.5t84 -65.5t122.5 -24.5 q98 0 144.5 41t68.5 112h224q-20 -129 -105.5 -224t-243.5 -120v-219h-208v221q-92 18 -162 64.5t-117 113t-70.5 147.5t-23.5 167z" />
<glyph unicode="&#xa3;" d="M88 645v211h139q0 66 -1 119t-1 90q0 88 37 160.5t98.5 125t143.5 80t172 27.5q98 0 180 -32.5t142.5 -92t94 -141.5t33.5 -182h-235q0 106 -51.5 171.5t-173.5 65.5q-90 0 -147.5 -45t-57.5 -137q0 -29 1 -84t1 -125h293v-211h-293q-2 -74 -5 -146.5t-10.5 -132 t-18.5 -100.5t-28 -55h611v-211h-877v174q25 20 41.5 68.5t27.5 112t16 138t7 152.5h-139z" />
<glyph unicode="&#xa4;" horiz-adv-x="1472" d="M180 344l133 133q-80 127 -80 281q0 78 20.5 148.5t59.5 129.5l-131 133l140 142l131 -133q59 39 129.5 60.5t152.5 21.5q84 0 155 -21.5t130 -60.5l131 131l141 -140l-133 -133q82 -123 82 -278q0 -158 -82 -281l131 -131l-139 -141l-131 131q-121 -80 -285 -80 q-160 0 -280 80l-133 -131zM457 758q0 -61 19.5 -116.5t56 -96.5t88 -65.5t114.5 -24.5t115.5 24.5t89.5 65.5t57.5 96t20.5 117q0 61 -20.5 116.5t-57.5 96.5t-89 65.5t-116 24.5q-63 0 -114.5 -24.5t-88 -65.5t-56 -96.5t-19.5 -116.5z" />
<glyph unicode="&#xa5;" d="M-61 1434h272l385 -617l381 617h272l-504 -813h267v-187h-312v-110h312v-187h-312v-137h-211v137h-305v187h305v110h-305v187h260z" />
<glyph unicode="&#xa6;" horiz-adv-x="522" d="M150 461h223v-940h-223v940zM150 684v942h223v-942h-223z" />
<glyph unicode="&#xa7;" d="M78 539q0 123 59.5 206.5t175.5 118.5q-78 49 -113.5 122t-35.5 165q0 82 37 149.5t99 115.5t145 74t173 26q94 0 177.5 -30t144.5 -85t97 -132t36 -169h-237q0 98 -61.5 159.5t-156.5 61.5q-90 0 -153.5 -43t-63.5 -127q0 -41 17.5 -71.5t47.5 -53t67.5 -40t78.5 -30.5 q84 -29 172 -60.5t160 -77.5t118 -112.5t46 -160.5q0 -61 -20.5 -116.5t-54.5 -99.5t-76 -73t-85 -37q78 -51 114 -122.5t36 -164.5q0 -84 -37 -150.5t-99.5 -114.5t-145.5 -73.5t-173 -25.5q-94 0 -177 29.5t-144.5 85t-97 132t-35.5 169.5h237q0 -98 61.5 -160t155.5 -62 q45 0 84 10.5t69 32t47 53t17 74.5q0 41 -17 72t-47 53.5t-68 40t-79 29.5q-84 27 -172 59.5t-159.5 78.5t-117.5 111.5t-46 162.5zM315 563q0 -53 32 -92t83 -68t111.5 -49t117.5 -37q92 8 151.5 62.5t59.5 140.5q0 51 -23.5 85t-68.5 63q-45 27 -108.5 49t-145.5 47 q-90 -8 -149.5 -61.5t-59.5 -139.5z" />
<glyph unicode="&#xa8;" horiz-adv-x="1218" d="M201 1300q0 66 45 112t110 46q66 0 112 -46t46 -112t-46 -110.5t-112 -44.5t-110.5 44.5t-44.5 110.5zM670 1300q0 66 45 112t110 46q66 0 112 -46t46 -112t-46 -110.5t-112 -44.5t-110.5 44.5t-44.5 110.5z" />
<glyph unicode="&#xa9;" horiz-adv-x="1646" d="M82 717q0 145 51 281.5t146.5 240.5t233.5 166.5t310 62.5t310.5 -62.5t233.5 -166.5t146.5 -240.5t51.5 -281.5t-51.5 -281.5t-146.5 -241t-233.5 -167t-310.5 -62.5t-310 62.5t-233.5 167t-146.5 240.5t-51 282zM289 717q0 -113 36.5 -218.5t105.5 -186.5t168 -129 t224 -48t223.5 48t168 129t106.5 186.5t37 218.5t-37 218t-106.5 186t-168 129t-223.5 48t-224 -48t-168 -129t-105.5 -186.5t-36.5 -217.5zM377 719q0 90 30.5 173t89 147.5t142.5 103.5t188 39q98 0 175 -27t130.5 -74t86 -110.5t43.5 -134.5h-170q-20 84 -85 141t-180 57 q-66 0 -118 -26.5t-88.5 -69.5t-56 -100.5t-19.5 -118.5q0 -63 20.5 -121.5t58.5 -102.5t93 -70t127 -26q88 0 152.5 45t90.5 113h175q-14 -66 -51 -121t-91.5 -96t-125 -64.5t-150.5 -23.5q-111 0 -197 38t-146.5 102.5t-92 148.5t-31.5 178z" />
<glyph unicode="&#xaa;" horiz-adv-x="1234" d="M78 477q0 100 36 191.5t100.5 161t154.5 109.5t198 40q84 0 167 -41t128 -113v129h223v-954h-223v129q-45 -72 -128 -113t-167 -41q-109 0 -198.5 40t-154 110t-100.5 160t-36 192zM301 477q0 -61 19.5 -116.5t56.5 -96.5t88.5 -65.5t114.5 -24.5t115.5 24.5t89 65.5 t57 96.5t20.5 116.5t-20.5 116.5t-57 96.5t-89 65.5t-115.5 24.5t-114.5 -24.5t-88.5 -65.5t-56.5 -96t-19.5 -117z" />
<glyph unicode="&#xab;" horiz-adv-x="966" d="M82 530v132l401 335v-215l-223 -186l223 -186v-215zM483 530v132l402 335v-215l-223 -186l223 -186v-215z" />
<glyph unicode="&#xac;" d="M180 641v199h828v-512h-224v313h-604z" />
<glyph unicode="&#xad;" horiz-adv-x="602" d="M61 483v199h480v-199h-480z" />
<glyph unicode="&#xae;" horiz-adv-x="1646" d="M82 717q0 145 51 281.5t146.5 240.5t233.5 166.5t310 62.5t310.5 -62.5t233.5 -166.5t146.5 -240.5t51.5 -281.5t-51.5 -281.5t-146.5 -241t-233.5 -167t-310.5 -62.5t-310 62.5t-233.5 167t-146.5 240.5t-51 282zM289 717q0 -113 36.5 -218.5t105.5 -186.5t168 -129 t224 -48t223.5 48t168 129t106.5 186.5t37 218.5t-37 218t-106.5 186t-168 129t-223.5 48t-224 -48t-168 -129t-105.5 -186.5t-36.5 -217.5zM545 332v833h340q68 0 121 -23.5t92 -63.5t59.5 -93t20.5 -113q0 -90 -46.5 -161.5t-130.5 -106.5l166 -272h-176l-151 250h-138 v-250h-157zM702 719h166q66 0 104 45t38 108t-38 109.5t-104 46.5h-166v-309z" />
<glyph unicode="&#xaf;" horiz-adv-x="1136" d="M201 1481v198h733v-198h-733z" />
<glyph unicode="&#xb0;" horiz-adv-x="667" d="M41 1176q0 61 22.5 114t62.5 93t93 62.5t115 22.5q61 0 114.5 -22.5t93.5 -62.5t62.5 -93t22.5 -114t-22.5 -114.5t-62.5 -93.5t-93.5 -62.5t-114.5 -22.5t-114.5 22.5t-93.5 62.5t-62.5 93t-22.5 115zM199 1176q0 -57 40 -97.5t95 -40.5t95 40.5t40 97.5q0 55 -40 97 t-95 42t-95 -42t-40 -97z" />
<glyph unicode="&#xb1;" d="M180 0v199h828v-199h-828zM180 756v198h301v316h224v-316h303v-198h-303v-314h-224v314h-301z" />
<glyph unicode="&#xb2;" horiz-adv-x="772" d="M113 645q0 96 15 161.5t43 111t65.5 76t85.5 59.5q70 41 116.5 76.5t46.5 95.5q0 47 -25.5 67.5t-64.5 20.5q-43 0 -71.5 -26.5t-28.5 -88.5h-180q0 109 72.5 180.5t207.5 71.5q53 0 102.5 -13.5t86.5 -43t58.5 -74.5t21.5 -107q0 -51 -21.5 -91t-52.5 -71.5t-67 -55 t-64 -42.5q-41 -27 -67.5 -46t-43 -36.5t-23 -35t-6.5 -41.5h340v-148h-546z" />
<glyph unicode="&#xb3;" horiz-adv-x="800" d="M98 909h181q0 -66 33.5 -100.5t86.5 -34.5q51 0 78 32t27 73q0 49 -25.5 78.5t-91.5 29.5h-70v141h70q61 0 83 27t22 70q0 47 -25 67.5t-66 20.5q-59 0 -79.5 -31t-20.5 -84h-180q0 51 15.5 96t49 80t86 55.5t125.5 20.5q55 0 104.5 -14.5t87.5 -42t60.5 -68.5t22.5 -96 q0 -66 -35 -112t-82 -62q53 -18 91 -66.5t38 -122.5q0 -57 -23.5 -101t-62.5 -75t-90 -46t-107 -15q-147 0 -225 77.5t-78 202.5z" />
<glyph unicode="&#xb4;" horiz-adv-x="1173" d="M164 1229l510 280l106 -174l-510 -280z" />
<glyph unicode="&#xb5;" d="M152 -479v1433h223v-493q0 -61 10 -114.5t33.5 -91.5t63.5 -60.5t100 -22.5q117 0 173 83t56 206v493h223v-954h-223v133q-45 -78 -125 -118t-186 -40q-66 0 -125 17v-471h-223z" />
<glyph unicode="&#xb6;" horiz-adv-x="1368" d="M31 1065q0 90 25.5 154.5t67.5 109.5t95 73t109.5 42t112 19t100.5 5h678v-184h-109v-1587h-211v1585h-215v-1585h-211v977q-94 0 -175 23.5t-140.5 71.5t-93 122t-33.5 174z" />
<glyph unicode="&#xb7;" horiz-adv-x="575" d="M123 639q0 70 48 118t116 48q70 0 118 -48t48 -118q0 -68 -48.5 -116t-117.5 -48q-68 0 -116 48t-48 116z" />
<glyph unicode="&#xb8;" horiz-adv-x="1136" d="M360 -303h132q18 -61 75 -62q35 0 56.5 23t21.5 61q0 35 -22.5 55.5t-53.5 20.5q-43 0 -63 -37h-111v242h144v-131q27 27 75 27q27 0 55.5 -11.5t52 -34t39 -55.5t15.5 -76q0 -35 -12 -70.5t-39 -64t-65.5 -46t-92.5 -17.5q-12 0 -42.5 4t-63.5 21.5t-62.5 53t-38.5 97.5 z" />
<glyph unicode="&#xb9;" horiz-adv-x="577" d="M94 1167v129q57 0 93 8.5t56.5 25t29 43t8.5 61.5h159v-789h-184v522h-162z" />
<glyph unicode="&#xba;" horiz-adv-x="1163" d="M78 477q0 100 36 191.5t101.5 161t157.5 109.5t207 40t208 -40t159.5 -109.5t102 -160.5t35.5 -192q0 -102 -35.5 -192t-102 -160t-159.5 -110t-208 -40t-207 40t-157.5 110t-101.5 160t-36 192zM301 477q0 -61 19.5 -116.5t56.5 -96.5t88.5 -65.5t114.5 -24.5 t115.5 24.5t89 65.5t57 96.5t20.5 116.5t-20.5 116.5t-57 96.5t-89 65.5t-115.5 24.5t-114.5 -24.5t-88.5 -65.5t-56.5 -96t-19.5 -117z" />
<glyph unicode="&#xbb;" horiz-adv-x="966" d="M82 195v215l223 186l-223 186v215l401 -335v-132zM483 195v215l224 186l-224 186v215l402 -335v-132z" />
<glyph unicode="&#xbc;" horiz-adv-x="1945" d="M147 1167v129q57 0 93 8.5t56.5 25t29 43t8.5 61.5h160v-789h-185v522h-162zM303 -2l895 1542l178 -102l-895 -1542zM1157 219v569h180v-417h133v219h181v-219h96v-152h-96v-219h-181v219h-313z" />
<glyph unicode="&#xbd;" horiz-adv-x="1945" d="M147 1167v129q57 0 93 8.5t56.5 25t29 43t8.5 61.5h160v-789h-185v522h-162zM303 -2l895 1542l178 -102l-895 -1542zM1153 0q0 96 15.5 161.5t43 110.5t65.5 76t85 60q70 41 117 76.5t47 95.5q0 47 -25.5 67.5t-64.5 20.5q-43 0 -72 -27t-29 -88h-180q0 109 72.5 180.5 t208.5 71.5q53 0 102 -13.5t86 -43t58.5 -74.5t21.5 -107q0 -51 -21.5 -91t-52.5 -71.5t-66.5 -55t-64.5 -42.5q-41 -27 -67.5 -46t-43 -36.5t-22.5 -35t-6 -42.5h340v-147h-547z" />
<glyph unicode="&#xbe;" horiz-adv-x="1945" d="M92 909h180q0 -66 34 -100.5t87 -34.5q51 0 78 32t27 73q0 49 -26 78.5t-91 29.5h-70v141h70q61 0 82.5 27t21.5 70q0 47 -24.5 67.5t-65.5 20.5q-59 0 -79.5 -31t-20.5 -84h-180q0 51 15 96t49 80t86 55.5t126 20.5q55 0 104.5 -14.5t87.5 -42t60.5 -68.5t22.5 -96 q0 -66 -35 -112t-82 -62q53 -18 91 -66.5t38 -122.5q0 -57 -23.5 -101t-62.5 -75t-90 -46t-107 -15q-147 0 -225 77.5t-78 202.5zM303 -2l895 1542l178 -102l-895 -1542zM1157 219v569h180v-417h133v219h181v-219h96v-152h-96v-219h-181v219h-313z" />
<glyph unicode="&#xbf;" horiz-adv-x="1046" d="M96 379q0 72 22.5 128t56.5 100t72 77t66 57q51 41 81 71t45.5 61.5t20.5 72.5t5 103h225q0 -68 -6 -123.5t-23.5 -103.5t-48 -89t-82.5 -78q-31 -23 -65.5 -50t-64 -61t-49 -75t-19.5 -90q0 -98 60.5 -145.5t154.5 -47.5q43 0 82 13.5t68.5 43t47 74.5t17.5 107h235 q0 -109 -36.5 -193t-98 -141t-143.5 -86t-172 -29q-92 0 -174 29t-143.5 81t-97.5 127t-36 167zM403 1294q0 35 13.5 67t37 55.5t55.5 37.5t69 14t67.5 -14t54 -37.5t37 -55.5t13.5 -67t-13.5 -66.5t-37 -55t-54.5 -37t-67 -13.5q-37 0 -69 13.5t-55.5 37t-37 55.5t-13.5 66 z" />
<glyph unicode="&#xc0;" horiz-adv-x="1169" d="M6 0l496 1434h166l495 -1434h-248l-61 182h-539l-61 -182h-248zM324 1815l106 174l510 -281l-106 -174zM387 393h395l-196 649z" />
<glyph unicode="&#xc1;" horiz-adv-x="1169" d="M6 0l496 1434h166l495 -1434h-248l-61 182h-539l-61 -182h-248zM279 1669l509 281l107 -174l-510 -281zM387 393h395l-196 649z" />
<glyph unicode="&#xc2;" horiz-adv-x="1169" d="M6 0l496 1434h166l495 -1434h-248l-61 182h-539l-61 -182h-248zM217 1694l367 297l370 -297l-139 -156l-229 184l-228 -182zM387 393h395l-196 649z" />
<glyph unicode="&#xc3;" horiz-adv-x="1169" d="M6 0l496 1434h166l495 -1434h-248l-61 182h-539l-61 -182h-248zM219 1782q45 29 79 45t58.5 23.5t42 8.5t31.5 1q20 0 61 -8.5t85.5 -19.5t83 -19.5t59.5 -8.5q16 0 30.5 2t32 8.5t41 16.5t60.5 29l88 -142q-80 -66 -138.5 -79t-84.5 -13q-23 0 -63 8t-84 18.5t-83 18.5 t-59 8q-41 0 -74 -13t-70 -30zM387 393h395l-196 649z" />
<glyph unicode="&#xc4;" horiz-adv-x="1169" d="M6 0l496 1434h166l495 -1434h-248l-61 182h-539l-61 -182h-248zM188 1751q0 70 48.5 118t115.5 48q70 0 118 -48t48 -118q0 -68 -48 -116t-118 -48q-68 0 -116 48t-48 116zM387 393h395l-196 649zM657 1751q0 70 48.5 118t115.5 48q70 0 118 -48t48 -118q0 -68 -48 -116 t-118 -48q-68 0 -116 48t-48 116z" />
<glyph unicode="&#xc5;" horiz-adv-x="1169" d="M6 0l496 1434h166l495 -1434h-248l-61 182h-539l-61 -182h-248zM334 1747q0 51 19.5 97t54 81t80 54.5t98.5 19.5q51 0 97 -20.5t81 -54.5t54.5 -80t19.5 -97t-19.5 -97t-54.5 -80t-81 -54.5t-97 -20.5q-53 0 -98.5 20.5t-80 54.5t-54 80t-19.5 97zM387 393h395l-196 649 zM496 1747q0 -35 26.5 -61.5t63.5 -26.5t63.5 26.5t26.5 63.5t-25.5 63.5t-64.5 26.5t-64.5 -27.5t-25.5 -64.5z" />
<glyph unicode="&#xc6;" horiz-adv-x="1808" d="M4 0l696 1434h959v-211h-592v-406h592v-211h-592v-395h592v-211h-828v184h-485l-86 -184h-256zM446 395h385v817z" />
<glyph unicode="&#xc7;" horiz-adv-x="1587" d="M78 719q0 145 50 280.5t145.5 239.5t229.5 166.5t304 62.5q160 0 283.5 -44t212 -118.5t140.5 -176t68 -218.5h-247q-12 74 -48 137.5t-90.5 109.5t-127 72.5t-160.5 26.5q-123 0 -220.5 -45t-163 -119.5t-100.5 -172t-35 -201.5q0 -111 36 -209t104.5 -173t170 -118 t232.5 -43q61 0 124 21.5t116 59.5t93 90t58 114h258q-23 -100 -79 -188.5t-140 -154t-190.5 -105.5t-231.5 -46v-67q27 27 76 26q27 0 55.5 -11t52 -33.5t39 -55.5t15.5 -76q0 -35 -12.5 -70.5t-39 -64.5t-65.5 -46.5t-92 -17.5q-12 0 -43 4.5t-63.5 21.5t-62.5 53t-38 98 h131q18 -61 76 -62q35 0 56.5 22.5t21.5 61.5q0 35 -22.5 55.5t-53.5 20.5q-43 0 -63 -37h-111v182q-154 18 -273.5 85t-203.5 167.5t-128 228.5t-44 267z" />
<glyph unicode="&#xc8;" horiz-adv-x="1116" d="M150 0v1434h827v-211h-592v-406h592v-211h-592v-395h592v-211h-827zM293 1778l106 174l510 -281l-106 -174z" />
<glyph unicode="&#xc9;" horiz-adv-x="1116" d="M150 0v1434h827v-211h-592v-406h592v-211h-592v-395h592v-211h-827zM252 1708l510 281l106 -174l-510 -281z" />
<glyph unicode="&#xca;" horiz-adv-x="1116" d="M150 0v1434h827v-211h-592v-406h592v-211h-592v-395h592v-211h-827zM205 1694l366 297l371 -297l-139 -156l-230 184l-227 -182z" />
<glyph unicode="&#xcb;" horiz-adv-x="1116" d="M150 0v1434h827v-211h-592v-406h592v-211h-592v-395h592v-211h-827zM197 1751q0 70 48 118t115 48q70 0 118 -48t48 -118q0 -68 -48 -116t-118 -48q-68 0 -115.5 48t-47.5 116zM666 1751q0 70 48 118t115 48q70 0 118 -48t48 -118q0 -68 -48 -116t-118 -48 q-68 0 -115.5 48t-47.5 116z" />
<glyph unicode="&#xcc;" horiz-adv-x="542" d="M-37 1776l107 174l510 -281l-107 -174zM150 0v1434h243v-1434h-243z" />
<glyph unicode="&#xcd;" horiz-adv-x="542" d="M-37 1669l510 281l107 -174l-510 -281zM150 0v1434h243v-1434h-243z" />
<glyph unicode="&#xce;" horiz-adv-x="542" d="M-96 1694l366 297l371 -297l-139 -156l-230 184l-227 -182zM150 0v1434h243v-1434h-243z" />
<glyph unicode="&#xcf;" horiz-adv-x="542" d="M-102 1751q0 70 48 118t115 48q70 0 118 -48t48 -118q0 -68 -48 -116t-118 -48q-68 0 -115.5 48t-47.5 116zM150 0v1434h243v-1434h-243zM367 1751q0 70 48 118t115 48q70 0 118 -48t48 -118q0 -68 -48 -116t-118 -48q-68 0 -115.5 48t-47.5 116z" />
<glyph unicode="&#xd0;" horiz-adv-x="1435" d="M-94 618v199h244v617h464q176 0 314.5 -61.5t233.5 -162t145.5 -229.5t50.5 -264t-50.5 -264t-145.5 -229.5t-233 -162t-315 -61.5h-464v618h-244zM385 211h229q119 0 213.5 43t158 113.5t97 162t33.5 187.5t-33.5 187t-97 162t-158 114t-213.5 43h-229v-406h254v-199 h-254v-407z" />
<glyph unicode="&#xd1;" horiz-adv-x="1359" d="M150 0v1434h258l567 -1020v1020h235v-1434h-258l-567 1020v-1020h-235zM287 1782q45 29 78.5 45t58.5 23.5t42 8.5t32 1q20 0 61 -8.5t85 -19.5t83 -19.5t59 -8.5q16 0 30.5 2t32 8.5t41 16.5t60.5 29l88 -142q-80 -66 -138 -79t-85 -13q-23 0 -62.5 8t-83.5 18.5 t-83 18.5t-60 8q-41 0 -73.5 -13t-69.5 -30z" />
<glyph unicode="&#xd2;" horiz-adv-x="1638" d="M78 717q0 145 51 281.5t146.5 240.5t233.5 166.5t310 62.5t310.5 -62.5t233.5 -166.5t146.5 -240.5t51.5 -281.5t-51.5 -281.5t-146.5 -241t-233.5 -167t-310.5 -62.5t-310 62.5t-233.5 167t-146.5 240.5t-51 282zM326 717q0 -104 33.5 -201.5t98 -173.5t155.5 -121 t206 -45t206 45t155.5 121t98.5 173t34 202q0 104 -34 201.5t-98.5 173t-155.5 120.5t-206 45t-206 -45t-155.5 -120.5t-98 -173t-33.5 -201.5zM547 1815l106 174l510 -281l-106 -174z" />
<glyph unicode="&#xd3;" horiz-adv-x="1638" d="M78 717q0 145 51 281.5t146.5 240.5t233.5 166.5t310 62.5t310.5 -62.5t233.5 -166.5t146.5 -240.5t51.5 -281.5t-51.5 -281.5t-146.5 -241t-233.5 -167t-310.5 -62.5t-310 62.5t-233.5 167t-146.5 240.5t-51 282zM326 717q0 -104 33.5 -201.5t98 -173.5t155.5 -121 t206 -45t206 45t155.5 121t98.5 173t34 202q0 104 -34 201.5t-98.5 173t-155.5 120.5t-206 45t-206 -45t-155.5 -120.5t-98 -173t-33.5 -201.5zM467 1708l510 281l106 -174l-510 -281z" />
<glyph unicode="&#xd4;" horiz-adv-x="1638" d="M78 717q0 145 51 281.5t146.5 240.5t233.5 166.5t310 62.5t310.5 -62.5t233.5 -166.5t146.5 -240.5t51.5 -281.5t-51.5 -281.5t-146.5 -241t-233.5 -167t-310.5 -62.5t-310 62.5t-233.5 167t-146.5 240.5t-51 282zM326 717q0 -104 33.5 -201.5t98 -173.5t155.5 -121 t206 -45t206 45t155.5 121t98.5 173t34 202q0 104 -34 201.5t-98.5 173t-155.5 120.5t-206 45t-206 -45t-155.5 -120.5t-98 -173t-33.5 -201.5zM453 1694l366 297l371 -297l-139 -156l-230 184l-227 -182z" />
<glyph unicode="&#xd5;" horiz-adv-x="1638" d="M78 717q0 145 51 281.5t146.5 240.5t233.5 166.5t310 62.5t310.5 -62.5t233.5 -166.5t146.5 -240.5t51.5 -281.5t-51.5 -281.5t-146.5 -241t-233.5 -167t-310.5 -62.5t-310 62.5t-233.5 167t-146.5 240.5t-51 282zM326 717q0 -104 33.5 -201.5t98 -173.5t155.5 -121 t206 -45t206 45t155.5 121t98.5 173t34 202q0 104 -34 201.5t-98.5 173t-155.5 120.5t-206 45t-206 -45t-155.5 -120.5t-98 -173t-33.5 -201.5zM442 1782q45 29 79 45t58.5 23.5t42 8.5t31.5 1q20 0 61.5 -8.5t85.5 -19.5t83 -19.5t59 -8.5q16 0 30.5 2t32 8.5t41 16.5 t60.5 29l88 -142q-80 -66 -138.5 -79t-84.5 -13q-23 0 -63 8t-84 18.5t-83 18.5t-59 8q-41 0 -74 -13t-69 -30z" />
<glyph unicode="&#xd6;" horiz-adv-x="1638" d="M78 717q0 145 51 281.5t146.5 240.5t233.5 166.5t310 62.5t310.5 -62.5t233.5 -166.5t146.5 -240.5t51.5 -281.5t-51.5 -281.5t-146.5 -241t-233.5 -167t-310.5 -62.5t-310 62.5t-233.5 167t-146.5 240.5t-51 282zM326 717q0 -104 33.5 -201.5t98 -173.5t156 -121 t205.5 -45q115 0 206 45t155.5 121t98.5 173t34 202q0 104 -34 201.5t-98.5 173t-155.5 120.5t-206 45t-206 -45t-155.5 -120.5t-98 -173t-33.5 -201.5zM420 1751q0 70 48 118t116 48q70 0 118 -48t48 -118q0 -68 -48 -116t-118 -48q-68 0 -116 48t-48 116zM889 1751 q0 70 48 118t116 48q70 0 118 -48t48 -118q0 -68 -48.5 -116t-117.5 -48q-68 0 -116 48t-48 116z" />
<glyph unicode="&#xd7;" d="M221 371l221 221l-211 213l140 141l213 -213l223 223l158 -157l-224 -224l215 -215l-141 -139l-213 213l-223 -221z" />
<glyph unicode="&#xd8;" horiz-adv-x="1638" d="M78 717q0 145 51 281.5t146.5 240.5t233.5 166.5t310 62.5q102 0 193 -24l84 194l200 -86l-84 -190q166 -104 257.5 -276.5t91.5 -368.5q0 -145 -51.5 -281.5t-146.5 -241t-233.5 -167t-310.5 -62.5q-106 0 -194 25l-72 -170l-199 84l70 168q-166 104 -256 276t-90 369z M326 717q0 -127 48 -241t140 -191l412 960q-49 12 -107 12q-115 0 -206 -45t-155.5 -120.5t-98 -173t-33.5 -201.5zM709 188q51 -12 110 -12q115 0 206 45t155.5 121t98.5 173t34 202q0 127 -49.5 240.5t-141.5 191.5z" />
<glyph unicode="&#xd9;" horiz-adv-x="1310" d="M139 479v955h236v-955q0 -61 19.5 -116.5t56 -96.5t88 -65.5t114.5 -24.5t115.5 24.5t89.5 65.5t57.5 96.5t20.5 116.5v955h235v-955q0 -104 -36.5 -197.5t-104 -164t-163 -111.5t-214.5 -41q-117 0 -211 41t-161.5 111.5t-104.5 164t-37 197.5zM377 1815l106 174 l510 -281l-106 -174z" />
<glyph unicode="&#xda;" horiz-adv-x="1310" d="M139 479v955h236v-955q0 -61 19.5 -116.5t56 -96.5t88 -65.5t114.5 -24.5t115.5 24.5t89.5 65.5t57.5 96.5t20.5 116.5v955h235v-955q0 -104 -36.5 -197.5t-104 -164t-163 -111.5t-214.5 -41q-117 0 -211 41t-161.5 111.5t-104.5 164t-37 197.5zM297 1708l510 281 l106 -174l-510 -281z" />
<glyph unicode="&#xdb;" horiz-adv-x="1310" d="M139 479v955h236v-955q0 -61 19.5 -116.5t56 -96.5t88 -65.5t114.5 -24.5t115.5 24.5t89.5 65.5t57.5 96.5t20.5 116.5v955h235v-955q0 -104 -36.5 -197.5t-104 -164t-163 -111.5t-214.5 -41q-117 0 -211 41t-161.5 111.5t-104.5 164t-37 197.5zM276 1694l367 297 l371 -297l-140 -156l-229 184l-227 -182z" />
<glyph unicode="&#xdc;" horiz-adv-x="1310" d="M139 479v955h236v-955q0 -61 19.5 -116.5t56 -96.5t88 -65.5t114.5 -24.5t115.5 24.5t89.5 65.5t57.5 96.5t20.5 116.5v955h235v-955q0 -104 -36.5 -197.5t-104 -164t-163 -111.5t-214.5 -41q-117 0 -211 41t-161.5 111.5t-104.5 164t-37 197.5zM254 1751q0 70 48 118 t116 48q70 0 118 -48t48 -118q0 -68 -48.5 -116t-117.5 -48q-68 0 -116 48t-48 116zM723 1751q0 70 48 118t116 48q70 0 118 -48t48 -118q0 -68 -48.5 -116t-117.5 -48q-68 0 -116 48t-48 116z" />
<glyph unicode="&#xdd;" horiz-adv-x="1232" d="M23 1434h272l383 -617l307 617h258l-711 -1434h-258l285 573zM391 1708l510 281l107 -174l-510 -281z" />
<glyph unicode="&#xde;" horiz-adv-x="1026" d="M150 0v1434h210v-269h123q117 0 206 -39t150.5 -103.5t93.5 -147t32 -168.5t-32 -169t-93.5 -147.5t-150.5 -103.5t-206 -39h-123v-248h-210zM360 434h123q66 0 116 23.5t85 61.5t52.5 87t17.5 101q0 51 -17.5 100t-52.5 87t-85 61.5t-116 23.5h-123v-545z" />
<glyph unicode="&#xdf;" horiz-adv-x="1157" d="M139 0v1010q0 100 33 182t92.5 141.5t141 92t180.5 32.5q90 0 172 -27.5t145.5 -80t100 -125t36.5 -160.5q0 -129 -58 -201.5t-153 -113.5q49 -18 93.5 -50t78 -75t54 -95.5t20.5 -113.5q0 -115 -43 -199t-110.5 -137t-152.5 -79t-169 -26q-51 0 -94 8.5t-64 16.5v193 q39 -8 85 -13.5t73 -5.5q45 0 90 14.5t81 44t58.5 74.5t22.5 109q0 33 -13.5 73.5t-44 76.5t-80.5 60.5t-122 24.5h-80v199h74q63 0 108 17.5t72 47t39 68.5t12 82t-18.5 79t-51 61.5t-74.5 40t-87 14.5q-98 0 -161 -70t-63 -180v-1010h-223z" />
<glyph unicode="&#xe0;" horiz-adv-x="1234" d="M78 477q0 100 36 191.5t100.5 161t154.5 109.5t198 40q84 0 167 -41t128 -113v129h223v-954h-223v129q-45 -72 -128 -113t-167 -41q-109 0 -198.5 40t-154 110t-100.5 160t-36 192zM266 1294l107 174l510 -280l-107 -174zM301 477q0 -61 19.5 -116.5t56.5 -96.5 t88.5 -65.5t114.5 -24.5t115.5 24.5t89 65.5t57 96.5t20.5 116.5t-20.5 116.5t-57 96.5t-89 65.5t-115.5 24.5t-114.5 -24.5t-88.5 -65.5t-56.5 -96t-19.5 -117z" />
<glyph unicode="&#xe1;" horiz-adv-x="1234" d="M78 477q0 100 36 191.5t100.5 161t154.5 109.5t198 40q84 0 167 -41t128 -113v129h223v-954h-223v129q-45 -72 -128 -113t-167 -41q-109 0 -198.5 40t-154 110t-100.5 160t-36 192zM207 1188l510 280l106 -174l-510 -280zM301 477q0 -61 19.5 -116.5t56.5 -96.5 t88.5 -65.5t114.5 -24.5t115.5 24.5t89 65.5t57 96.5t20.5 116.5t-20.5 116.5t-57 96.5t-89 65.5t-115.5 24.5t-114.5 -24.5t-88.5 -65.5t-56.5 -96t-19.5 -117z" />
<glyph unicode="&#xe2;" horiz-adv-x="1234" d="M78 477q0 100 36 191.5t100.5 161t154.5 109.5t198 40q84 0 167 -41t128 -113v129h223v-954h-223v129q-45 -72 -128 -113t-167 -41q-109 0 -198.5 40t-154 110t-100.5 160t-36 192zM213 1212l367 297l370 -297l-139 -155l-229 184l-228 -182zM301 477q0 -61 19.5 -116.5 t56.5 -96.5t88.5 -65.5t114.5 -24.5t115.5 24.5t89 65.5t57 96.5t20.5 116.5t-20.5 116.5t-57 96.5t-89 65.5t-115.5 24.5t-114.5 -24.5t-88.5 -65.5t-56.5 -96t-19.5 -117z" />
<glyph unicode="&#xe3;" horiz-adv-x="1234" d="M78 477q0 100 36 191.5t100.5 161t154.5 109.5t198 40q84 0 167 -41t128 -113v129h223v-954h-223v129q-45 -72 -128 -113t-167 -41q-109 0 -198.5 40t-154 110t-100.5 160t-36 192zM211 1356q45 29 79 45t58.5 23.5t42 8.5t31.5 1q20 0 61 -8.5t85 -19.5t83 -19.5 t60 -8.5q16 0 30.5 2t32 8.5t41 16.5t59.5 29l89 -142q-80 -66 -138.5 -79t-85.5 -13q-23 0 -62.5 8.5t-83.5 18.5t-83 18t-59 8q-41 0 -74 -13t-70 -30zM301 477q0 -61 19.5 -116.5t56.5 -96.5t88.5 -65.5t114.5 -24.5t115.5 24.5t89 65.5t57 96.5t20.5 116.5t-20.5 116.5 t-57 96.5t-89 65.5t-115.5 24.5t-114.5 -24.5t-88.5 -65.5t-56.5 -96t-19.5 -117z" />
<glyph unicode="&#xe4;" horiz-adv-x="1234" d="M78 477q0 100 36 191.5t100.5 161t154.5 109.5t198 40q84 0 167 -41t128 -113v129h223v-954h-223v129q-45 -72 -128 -113t-167 -41q-109 0 -198.5 40t-154 110t-100.5 160t-36 192zM178 1257q0 70 48 118t116 48q70 0 118 -48t48 -118q0 -68 -48 -115.5t-118 -47.5 q-68 0 -116 48t-48 115zM301 477q0 -61 19.5 -116.5t56.5 -96.5t88 -65.5t115 -24.5q63 0 115.5 24.5t89 65.5t57 96.5t20.5 116.5t-20.5 116.5t-57 96.5t-89 65.5t-115.5 24.5t-114.5 -24.5t-88.5 -65.5t-56.5 -96.5t-19.5 -116.5zM647 1257q0 70 48 118t116 48 q70 0 118 -48t48 -118q0 -68 -48 -115.5t-118 -47.5q-68 0 -116 48t-48 115z" />
<glyph unicode="&#xe5;" horiz-adv-x="1234" d="M78 477q0 100 36 191.5t100.5 161t154.5 109.5t198 40q84 0 167 -41t128 -113v129h223v-954h-223v129q-45 -72 -128 -113t-167 -41q-109 0 -198.5 40t-154 110t-100.5 160t-36 192zM301 477q0 -61 19.5 -116.5t56.5 -96.5t88.5 -65.5t114.5 -24.5t115.5 24.5t89 65.5 t57 96.5t20.5 116.5t-20.5 116.5t-57 96.5t-89 65.5t-115.5 24.5t-114.5 -24.5t-88.5 -65.5t-56.5 -96t-19.5 -117zM360 1294q0 51 19.5 97.5t54.5 81t80 54t98 19.5q51 0 97.5 -20.5t81 -54t54 -79.5t19.5 -98q0 -51 -19.5 -97t-54 -80t-80.5 -54.5t-98 -20.5 q-53 0 -98 20.5t-80 54.5t-54.5 80t-19.5 97zM522 1294q0 -35 26.5 -61.5t63.5 -26.5t63.5 27t26.5 63q0 37 -25.5 63.5t-64.5 26.5t-64.5 -27.5t-25.5 -64.5z" />
<glyph unicode="&#xe6;" horiz-adv-x="1867" d="M78 477q0 100 36 191.5t100.5 161t154.5 109.5t198 40q84 0 167 -41t128 -113v129h223v-36q51 29 114 45t134 16q92 0 173 -33t141.5 -91t94.5 -136t34 -170q0 -25 -1 -58.5t-10 -80.5h-675q0 -51 14 -96.5t44 -79t77 -53t114 -19.5q47 0 81 10t57.5 26.5t39 40 t25.5 48.5h225q-12 -61 -45.5 -117.5t-88 -99.5t-128 -69t-166.5 -26q-78 0 -140 17.5t-114 46.5v-39h-223v129q-45 -72 -128 -113t-167 -41q-109 0 -198.5 40t-154 110t-100.5 160t-36 192zM301 477q0 -61 19.5 -116.5t56.5 -96.5t88.5 -65.5t114.5 -24.5t115.5 24.5 t89 65.5t57 96.5t20.5 116.5q0 63 -20.5 118.5t-57 96.5t-89 64.5t-115.5 23.5t-114.5 -24.5t-88.5 -65.5t-56.5 -96t-19.5 -117zM1092 575h467q0 98 -65 158t-167 60q-98 0 -166.5 -55.5t-68.5 -162.5z" />
<glyph unicode="&#xe7;" horiz-adv-x="1093" d="M82 477q0 96 30.5 187.5t91 161t148.5 111.5t205 42t200 -33t137 -85t82 -118.5t34 -136.5h-224q-10 78 -60 126t-165 48q-66 0 -113 -24.5t-79.5 -66.5t-48 -96t-15.5 -116q0 -61 15.5 -116.5t48 -96.5t84 -65.5t122.5 -24.5q98 0 144.5 41t68.5 113h224 q-12 -72 -43 -133.5t-81 -107.5t-122 -74.5t-166 -35.5v-63q27 27 76 27q27 0 55.5 -11.5t52 -34t39 -55.5t15.5 -76q0 -35 -12.5 -70.5t-39 -64t-65.5 -46t-92 -17.5q-12 0 -43 4t-64 21.5t-62.5 53.5t-37.5 97h131q18 -61 76 -61q35 0 56.5 22.5t21.5 60.5 q0 35 -22.5 55.5t-53.5 20.5q-43 0 -64 -37h-110v183q-92 18 -162 64t-118 112.5t-71.5 147.5t-23.5 167z" />
<glyph unicode="&#xe8;" horiz-adv-x="1087" d="M82 477q0 106 31.5 198.5t91 160t147.5 105.5t201 38q92 0 173 -33t141.5 -91t94 -136t33.5 -170q0 -25 -1 -58.5t-9 -80.5h-676q0 -51 14.5 -96.5t44 -79t77 -53t114.5 -19.5q47 0 81 10t57.5 26.5t39 40t25.5 48.5h225q-12 -61 -46 -117.5t-88 -99.5t-128 -69t-166 -26 q-121 0 -210 42t-148.5 112t-89 160t-29.5 188zM297 1294l106 174l510 -280l-106 -174zM311 575h467q0 100 -64.5 159t-166.5 59q-98 0 -167 -55.5t-69 -162.5z" />
<glyph unicode="&#xe9;" horiz-adv-x="1087" d="M82 477q0 106 31.5 198.5t91 160t147.5 105.5t201 38q92 0 173 -33t141.5 -91t94 -136t33.5 -170q0 -25 -1 -58.5t-9 -80.5h-676q0 -51 14.5 -96.5t44 -79t77 -53t114.5 -19.5q47 0 81 10t57.5 26.5t39 40t25.5 48.5h225q-12 -61 -46 -117.5t-88 -99.5t-128 -69t-166 -26 q-121 0 -210 42t-148.5 112t-89 160t-29.5 188zM229 1188l510 280l107 -174l-510 -280zM311 575h467q0 100 -64.5 159t-166.5 59q-98 0 -167 -55.5t-69 -162.5z" />
<glyph unicode="&#xea;" horiz-adv-x="1087" d="M82 477q0 106 31.5 198.5t91 160t147.5 105.5t201 38q92 0 173 -33t141.5 -91t94 -136t33.5 -170q0 -25 -1 -58.5t-9 -80.5h-676q0 -51 14.5 -96.5t44 -79t77 -53t114.5 -19.5q47 0 81 10t57.5 26.5t39 40t25.5 48.5h225q-12 -61 -46 -117.5t-88 -99.5t-128 -69t-166 -26 q-121 0 -210 42t-148.5 112t-89 160t-29.5 188zM182 1212l367 297l371 -297l-140 -155l-229 184l-227 -182zM311 575h467q0 100 -64.5 159t-166.5 59q-98 0 -167 -55.5t-69 -162.5z" />
<glyph unicode="&#xeb;" horiz-adv-x="1087" d="M82 477q0 106 31.5 198.5t91 160t147.5 105.5t201 38q92 0 173 -33t141.5 -91t94 -136t33.5 -170q0 -25 -1 -58.5t-9 -80.5h-676q0 -51 14.5 -96.5t44 -79t77 -53t114.5 -19.5q47 0 81 10t57.5 26.5t39 40t25.5 48.5h225q-12 -61 -46 -117.5t-88 -99.5t-128 -69t-166 -26 q-121 0 -210 42t-148.5 112t-89 160t-29.5 188zM150 1257q0 70 48 118t115 48q70 0 118 -48t48 -118q0 -68 -48 -115.5t-118 -47.5q-68 0 -115.5 47.5t-47.5 115.5zM311 575h467q0 100 -64.5 159t-166.5 59q-98 0 -167 -55.5t-69 -162.5zM618 1257q0 70 48.5 118t115.5 48 q70 0 118 -48t48 -118q0 -68 -48 -115.5t-118 -47.5q-68 0 -116 47.5t-48 115.5z" />
<glyph unicode="&#xec;" horiz-adv-x="612" d="M-2 1335l106 174l510 -280l-106 -174zM195 0v954h223v-954h-223z" />
<glyph unicode="&#xed;" horiz-adv-x="612" d="M-2 1229l510 280l106 -174l-510 -280zM195 0v954h223v-954h-223z" />
<glyph unicode="&#xee;" horiz-adv-x="612" d="M-61 1212l366 297l371 -297l-139 -155l-230 184l-227 -182zM197 0v954h223v-954h-223z" />
<glyph unicode="&#xef;" horiz-adv-x="612" d="M-92 1257q0 70 48 118t116 48q70 0 118 -48t48 -118q0 -68 -48.5 -115.5t-117.5 -47.5q-68 0 -116 47.5t-48 115.5zM172 0v954h223v-954h-223zM377 1257q0 70 48 118t116 48q70 0 118 -48t48 -118q0 -68 -48.5 -115.5t-117.5 -47.5q-68 0 -116 47.5t-48 115.5z" />
<glyph unicode="&#xf0;" horiz-adv-x="1159" d="M78 477q0 100 36 191.5t101.5 161t157.5 109.5t207 40h18l-57 92l-209 -110l-88 165l192 105l-123 203h271l55 -95l178 95l90 -166l-168 -88l254 -406q41 -66 66.5 -140.5t25.5 -156.5q0 -102 -35.5 -192t-102 -160t-159.5 -110t-208 -40t-207 40t-157.5 110t-101.5 160 t-36 192zM301 477q0 -61 19.5 -116.5t56.5 -96.5t88.5 -65.5t114.5 -24.5t115.5 24.5t89 65.5t57 96.5t20.5 116.5t-20.5 116.5t-57 96.5t-89 65.5t-115.5 24.5t-114.5 -24.5t-88.5 -65.5t-56.5 -96t-19.5 -117z" />
<glyph unicode="&#xf1;" horiz-adv-x="1165" d="M150 0v954h223v-133q45 78 125 118t186 40q104 0 175 -35t112 -94q35 -53 48 -118.5t13 -164.5v-567h-223v494q0 61 -10.5 114.5t-34 91t-63 60t-99.5 22.5q-117 0 -173 -83t-56 -205v-494h-223zM197 1356q45 29 78.5 45t58 23.5t42 8.5t32.5 1q20 0 61 -8.5t85 -19.5 t83 -19.5t59 -8.5q16 0 30.5 2t32 8.5t41 16.5t60.5 29l88 -142q-80 -66 -138 -79t-85 -13q-23 0 -62.5 8.5t-83.5 18.5t-83 18t-60 8q-41 0 -73.5 -13t-69.5 -30z" />
<glyph unicode="&#xf2;" horiz-adv-x="1163" d="M78 477q0 100 36 191.5t101.5 161t157.5 109.5t207 40t208 -40t159.5 -109.5t102 -160.5t35.5 -192q0 -102 -35.5 -192t-102 -160t-159.5 -110t-208 -40t-207 40t-157.5 110t-101.5 160t-36 192zM293 1294l106 174l510 -280l-106 -174zM301 477q0 -61 19.5 -116.5 t56.5 -96.5t88.5 -65.5t114.5 -24.5t115.5 24.5t89 65.5t57 96.5t20.5 116.5t-20.5 116.5t-57 96.5t-89 65.5t-115.5 24.5t-114.5 -24.5t-88.5 -65.5t-56.5 -96t-19.5 -117z" />
<glyph unicode="&#xf3;" horiz-adv-x="1163" d="M78 477q0 100 36 191.5t101.5 161t157.5 109.5t207 40t208 -40t159.5 -109.5t102 -160.5t35.5 -192q0 -102 -35.5 -192t-102 -160t-159.5 -110t-208 -40t-207 40t-157.5 110t-101.5 160t-36 192zM213 1188l510 280l106 -174l-510 -280zM301 477q0 -61 19.5 -116.5 t56.5 -96.5t88.5 -65.5t114.5 -24.5t115.5 24.5t89 65.5t57 96.5t20.5 116.5t-20.5 116.5t-57 96.5t-89 65.5t-115.5 24.5t-114.5 -24.5t-88.5 -65.5t-56.5 -96t-19.5 -117z" />
<glyph unicode="&#xf4;" horiz-adv-x="1163" d="M78 477q0 100 36 191.5t101.5 161t157.5 109.5t207 40t208 -40t159.5 -109.5t102 -160.5t35.5 -192q0 -102 -35.5 -192t-102 -160t-159.5 -110t-208 -40t-207 40t-157.5 110t-101.5 160t-36 192zM215 1212l367 297l370 -297l-139 -155l-229 184l-228 -182zM301 477 q0 -61 19.5 -116.5t56.5 -96.5t88.5 -65.5t114.5 -24.5t115.5 24.5t89 65.5t57 96.5t20.5 116.5t-20.5 116.5t-57 96.5t-89 65.5t-115.5 24.5t-114.5 -24.5t-88.5 -65.5t-56.5 -96t-19.5 -117z" />
<glyph unicode="&#xf5;" horiz-adv-x="1163" d="M78 477q0 100 36 191.5t101.5 161t157.5 109.5t207 40t208 -40t159.5 -109.5t102 -160.5t35.5 -192q0 -102 -35.5 -192t-102 -160t-159.5 -110t-208 -40t-207 40t-157.5 110t-101.5 160t-36 192zM188 1305q45 29 79 45t58.5 23t42 8t31.5 1q20 0 61.5 -8t85.5 -19.5 t83 -19.5t59 -8q16 0 30.5 2t32 8t41 16.5t60.5 28.5l88 -141q-80 -66 -138.5 -79t-84.5 -13q-23 0 -63 8t-84 18.5t-82.5 18.5t-59.5 8q-41 0 -73.5 -13t-69.5 -30zM301 477q0 -61 19.5 -116.5t56.5 -96.5t88.5 -65.5t114.5 -24.5t115.5 24.5t89 65.5t57 96.5t20.5 116.5 t-20.5 116.5t-57 96.5t-89 65.5t-115.5 24.5t-114.5 -24.5t-88.5 -65.5t-56.5 -96t-19.5 -117z" />
<glyph unicode="&#xf6;" horiz-adv-x="1163" d="M78 477q0 100 36 191.5t101.5 161t157.5 109.5t207 40t208 -40t159.5 -109.5t102 -160.5t35.5 -192q0 -102 -35.5 -192t-102 -160t-159.5 -110t-208 -40t-207 40t-157.5 110t-101.5 160t-36 192zM182 1257q0 70 48.5 118t115.5 48q70 0 118 -48t48 -118q0 -68 -48 -115.5 t-118 -47.5q-68 0 -116 48t-48 115zM301 477q0 -61 19.5 -116.5t56.5 -96.5t88.5 -65.5t114.5 -24.5t115.5 24.5t89 65.5t57 96.5t20.5 116.5t-20.5 116.5t-57 96.5t-89 65.5t-115.5 24.5t-114.5 -24.5t-88.5 -65.5t-56.5 -96t-19.5 -117zM651 1257q0 70 48.5 118t115.5 48 q70 0 118 -48t48 -118q0 -68 -48 -115.5t-118 -47.5q-68 0 -116 47.5t-48 115.5z" />
<glyph unicode="&#xf7;" d="M180 381v199h828v-199h-828zM430 152q0 70 48 117.5t116 47.5q70 0 118 -48t48 -117q0 -68 -48 -116t-118 -48q-68 0 -116 48t-48 116zM430 825q0 70 48 118t116 48q70 0 118 -48t48 -118q0 -68 -48 -115.5t-118 -47.5q-68 0 -116 47.5t-48 115.5z" />
<glyph unicode="&#xf8;" horiz-adv-x="1163" d="M78 477q0 100 36 191.5t101.5 161t157.5 109.5t207 40q27 0 51 -2t47 -6l74 170l188 -82l-70 -164q102 -70 158.5 -179.5t56.5 -238.5q0 -102 -35.5 -192t-102 -160t-160 -110t-207.5 -40q-49 0 -101 11l-73 -168l-189 82l70 161q-98 70 -153.5 178.5t-55.5 237.5z M301 477q0 -125 74 -211l221 514h-16q-63 0 -114.5 -24.5t-88.5 -65.5t-56.5 -96.5t-19.5 -116.5zM561 174h19q63 0 115.5 24.5t89 65.5t57 96.5t20.5 116.5t-20.5 117.5t-59.5 97.5z" />
<glyph unicode="&#xf9;" horiz-adv-x="1165" d="M133 387v567h223v-493q0 -61 10.5 -114.5t34 -91.5t63.5 -60.5t99 -22.5q117 0 173.5 83t56.5 206v493h223v-954h-223v133q-45 -78 -125 -118t-187 -40q-104 0 -174.5 35t-111.5 94q-35 53 -48.5 119t-13.5 164zM274 1294l107 174l510 -280l-107 -174z" />
<glyph unicode="&#xfa;" horiz-adv-x="1165" d="M133 387v567h223v-493q0 -61 10.5 -114.5t34 -91.5t63.5 -60.5t99 -22.5q117 0 173.5 83t56.5 206v493h223v-954h-223v133q-45 -78 -125 -118t-187 -40q-104 0 -174.5 35t-111.5 94q-35 53 -48.5 119t-13.5 164zM262 1188l510 280l107 -174l-510 -280z" />
<glyph unicode="&#xfb;" horiz-adv-x="1165" d="M133 387v567h223v-493q0 -61 10.5 -114.5t34 -91.5t63.5 -60.5t99 -22.5q117 0 173.5 83t56.5 206v493h223v-954h-223v133q-45 -78 -125 -118t-187 -40q-104 0 -174.5 35t-111.5 94q-35 53 -48.5 119t-13.5 164zM197 1212l366 297l371 -297l-139 -155l-230 184l-227 -182 z" />
<glyph unicode="&#xfc;" horiz-adv-x="1165" d="M133 387v567h223v-493q0 -61 10.5 -114.5t34 -91.5t63.5 -60.5t99 -22.5q117 0 173.5 83t56.5 206v493h223v-954h-223v133q-45 -78 -125 -118t-187 -40q-104 0 -174.5 35t-111.5 94q-35 53 -48.5 119t-13.5 164zM178 1257q0 70 48 118t116 48q70 0 118 -48t48 -118 q0 -68 -48 -115.5t-118 -47.5q-68 0 -116 47.5t-48 115.5zM647 1257q0 70 48 118t116 48q70 0 118 -48t48 -118q0 -68 -48 -115.5t-118 -47.5q-68 0 -116 47.5t-48 115.5z" />
<glyph unicode="&#xfd;" horiz-adv-x="1183" d="M133 -109h217q2 -80 56.5 -137t171.5 -57q121 0 180 58.5t59 199.5v178q-45 -78 -125 -118t-186 -40q-104 0 -175 35t-112 94q-35 53 -48 119t-13 164v567h223v-493q0 -61 10 -114.5t34 -91.5t63.5 -60.5t99.5 -22.5q117 0 173 83t56 206v493h223v-999 q0 -244 -127.5 -350.5t-363.5 -106.5q-92 0 -168 32t-131 86t-86 126t-31 149zM287 1188l510 280l106 -174l-510 -280z" />
<glyph unicode="&#xfe;" horiz-adv-x="1226" d="M150 -479v1913h223v-609q45 72 128 113t167 41q109 0 198.5 -40t154 -109.5t100.5 -160.5t36 -192q0 -102 -36 -192t-100.5 -160t-154.5 -110t-198 -40q-84 0 -167 41t-128 113v-608h-223zM373 477q0 -61 19.5 -116.5t56 -96.5t88.5 -65.5t118 -24.5q63 0 114.5 24.5 t88.5 65.5t56.5 96.5t19.5 116.5t-19.5 116.5t-56.5 96.5t-88 65.5t-115 24.5q-66 0 -118 -24.5t-88.5 -65.5t-56 -96t-19.5 -117z" />
<glyph unicode="&#xff;" horiz-adv-x="1183" d="M133 -109h217q2 -80 56.5 -137t171.5 -57q121 0 180 58.5t59 199.5v178q-45 -78 -125 -118t-186 -40q-104 0 -175 35t-112 94q-35 53 -48 119t-13 164v567h223v-493q0 -61 10 -114.5t34 -91.5t63.5 -60.5t99.5 -22.5q117 0 173 83t56 206v493h223v-999 q0 -244 -127.5 -350.5t-363.5 -106.5q-92 0 -168 32t-131 86t-86 126t-31 149zM221 1257q0 66 45 112t111 46t112 -46t46 -112t-46.5 -110.5t-111.5 -44.5q-66 0 -111 44.5t-45 110.5zM690 1257q0 66 45 112t111 46t112 -46t46 -112t-46.5 -110.5t-111.5 -44.5 q-66 0 -111 44.5t-45 110.5z" />
<glyph unicode="&#x152;" horiz-adv-x="2281" d="M78 713q0 145 51 281t146.5 240.5t233.5 167t310 62.5q154 0 279 -49t217 -135v154h827v-211h-592v-406h592v-211h-592v-395h592v-211h-827v145q-92 -86 -217 -135t-279 -49q-172 0 -310 62.5t-233.5 167t-146.5 240.5t-51 282zM326 713q0 -104 33.5 -201.5t98 -173.5 t155.5 -121t206 -45t206 45t155.5 121t98.5 173t34 202q0 104 -34 201.5t-98.5 173t-155.5 120.5t-206 45t-206 -45t-155.5 -120.5t-98 -173t-33.5 -201.5z" />
<glyph unicode="&#x153;" horiz-adv-x="1867" d="M78 477q0 100 36 191.5t101.5 161t157.5 109.5t207 40q123 0 220 -45t163 -123q59 78 153 123t217 45q92 0 173 -33t141.5 -91t94.5 -136t34 -170q0 -25 -1 -58.5t-10 -80.5h-675q0 -51 14 -96.5t44 -79t77 -53t114 -19.5q47 0 81 10t57.5 26.5t39 40t25.5 48.5h225 q-12 -61 -45.5 -117.5t-88 -99.5t-128 -69t-166.5 -26q-129 0 -221 46.5t-151 123.5q-66 -78 -165.5 -124t-221.5 -46q-115 0 -207 40t-157.5 110t-101.5 160t-36 192zM301 477q0 -61 19.5 -116.5t56.5 -96.5t88.5 -65.5t114.5 -24.5t115.5 23.5t89 63.5t57 95.5t20.5 120.5 q0 63 -20.5 118.5t-57 96.5t-89 64.5t-115.5 23.5t-114.5 -24.5t-88.5 -65.5t-56.5 -96t-19.5 -117zM1092 575h467q0 100 -65 159t-167 59q-98 0 -166.5 -55.5t-68.5 -162.5z" />
<glyph unicode="&#x178;" horiz-adv-x="1232" d="M23 1434h272l383 -617l307 617h258l-711 -1434h-258l285 573zM287 1751q0 66 45 112t110 46q66 0 112 -46t46 -112t-46 -111t-112 -45t-110.5 45t-44.5 111zM756 1751q0 66 45 112t110 46q66 0 112 -46t46 -112t-46 -111t-112 -45t-110.5 45t-44.5 111z" />
<glyph unicode="&#x2c6;" horiz-adv-x="1007" d="M129 1427l369 297l368 -297l-139 -155l-229 184l-228 -182z" />
<glyph unicode="&#x2dc;" horiz-adv-x="1079" d="M164 1356q45 29 78.5 45t58.5 23.5t42 8.5t32 1q20 0 61 -8.5t85 -19.5t83 -19.5t60 -8.5q16 0 30.5 2t31.5 8.5t41 16.5t60 29l88 -142q-80 -66 -138 -79t-85 -13q-23 0 -62.5 8.5t-83.5 18.5t-83 18t-60 8q-41 0 -73.5 -13t-69.5 -30z" />
<glyph unicode="&#x2000;" horiz-adv-x="999" />
<glyph unicode="&#x2001;" horiz-adv-x="1999" />
<glyph unicode="&#x2002;" horiz-adv-x="999" />
<glyph unicode="&#x2003;" horiz-adv-x="1999" />
<glyph unicode="&#x2004;" horiz-adv-x="666" />
<glyph unicode="&#x2005;" horiz-adv-x="499" />
<glyph unicode="&#x2006;" horiz-adv-x="333" />
<glyph unicode="&#x2007;" horiz-adv-x="333" />
<glyph unicode="&#x2008;" horiz-adv-x="249" />
<glyph unicode="&#x2009;" horiz-adv-x="399" />
<glyph unicode="&#x200a;" horiz-adv-x="111" />
<glyph unicode="&#x2010;" horiz-adv-x="602" d="M61 483v199h480v-199h-480z" />
<glyph unicode="&#x2011;" horiz-adv-x="602" d="M61 483v199h480v-199h-480z" />
<glyph unicode="&#x2012;" horiz-adv-x="602" d="M61 483v199h480v-199h-480z" />
<glyph unicode="&#x2013;" horiz-adv-x="1030" d="M102 483v199h826v-199h-826z" />
<glyph unicode="&#x2014;" horiz-adv-x="2060" d="M102 483v199h1856v-199h-1856z" />
<glyph unicode="&#x2018;" horiz-adv-x="579" d="M123 1188q0 180 85 252.5t241 75.5v-101q-94 0 -142 -41q-23 -16 -34 -39.5t-15 -46.5q4 4 16.5 7t24.5 3q72 0 115 -43.5t43 -109.5t-46 -113t-112 -47q-80 0 -128 55.5t-48 147.5z" />
<glyph unicode="&#x2019;" horiz-adv-x="579" d="M123 1356q0 66 46 113t112 47q80 0 128 -55.5t48 -147.5q0 -180 -85 -253t-241 -75v100q51 0 85 11.5t56 29.5q23 18 34 41t16 45q-4 -4 -16.5 -7t-24.5 -3q-72 0 -115 44t-43 110z" />
<glyph unicode="&#x201a;" horiz-adv-x="579" d="M123 129q0 66 46 113t112 47q80 0 128 -55.5t48 -147.5q0 -180 -85 -253t-241 -75v101q51 0 85 11t56 30q23 16 34 39.5t16 46.5q-4 -4 -16.5 -7.5t-24.5 -3.5q-72 0 -115 44t-43 110z" />
<glyph unicode="&#x201c;" horiz-adv-x="962" d="M123 1188q0 180 85 252.5t241 75.5v-101q-94 0 -142 -41q-23 -16 -34 -39.5t-15 -46.5q4 4 16.5 7t24.5 3q72 0 115 -43.5t43 -109.5t-46 -113t-112 -47q-80 0 -128 55.5t-48 147.5zM506 1188q0 180 85 252.5t240 75.5v-101q-94 0 -141 -41q-23 -16 -34 -39.5t-15 -46.5 q4 4 16.5 7t24.5 3q72 0 115 -43.5t43 -109.5t-46 -113t-112 -47q-80 0 -128 55.5t-48 147.5z" />
<glyph unicode="&#x201d;" horiz-adv-x="962" d="M123 1356q0 66 46 113t112 47q80 0 128 -55.5t48 -147.5q0 -180 -85 -253t-241 -75v100q51 0 85 11.5t56 29.5q23 18 34 41t16 45q-4 -4 -16.5 -7t-24.5 -3q-72 0 -115 44t-43 110zM506 1356q0 66 46 113t112 47q80 0 128 -55.5t48 -147.5q0 -180 -85 -253t-241 -75v100 q51 0 85 11.5t56 29.5q23 18 34 41t16 45q-4 -4 -16.5 -7t-24.5 -3q-72 0 -115 44t-43 110z" />
<glyph unicode="&#x201e;" horiz-adv-x="962" d="M123 129q0 66 46 113t112 47q80 0 128 -55.5t48 -147.5q0 -180 -85 -253t-241 -75v101q51 0 85 11t56 30q23 16 34 39.5t16 46.5q-4 -4 -16.5 -7.5t-24.5 -3.5q-72 0 -115 44t-43 110zM506 129q0 66 46 113t112 47q80 0 128 -55.5t48 -147.5q0 -180 -85 -253t-241 -75 v101q51 0 85 11t56 30q23 16 34 39.5t16 46.5q-4 -4 -16.5 -7.5t-24.5 -3.5q-72 0 -115 44t-43 110z" />
<glyph unicode="&#x2022;" horiz-adv-x="722" d="M123 639q0 49 18.5 93t51 77t75.5 51.5t92 18.5t93.5 -18.5t77 -51.5t51 -77t18.5 -93t-18.5 -92t-51 -76t-76.5 -51.5t-94 -18.5q-49 0 -92 18.5t-75.5 51.5t-51 76t-18.5 92z" />
<glyph unicode="&#x2026;" horiz-adv-x="1976" d="M123 152q0 70 48 117.5t116 47.5q70 0 118 -48t48 -117q0 -68 -48.5 -116t-117.5 -48q-68 0 -116 48t-48 116zM823 150q0 70 48.5 117.5t115.5 47.5q70 0 118 -48t48 -117q0 -68 -48 -116t-118 -48q-68 0 -116 48t-48 116zM1524 147q0 70 48 118t116 48q70 0 117.5 -48 t47.5 -118q0 -68 -48 -115.5t-117 -47.5q-68 0 -116 47.5t-48 115.5z" />
<glyph unicode="&#x202f;" horiz-adv-x="399" />
<glyph unicode="&#x2039;" horiz-adv-x="565" d="M82 530v132l401 335v-215l-223 -186l223 -186v-215z" />
<glyph unicode="&#x203a;" horiz-adv-x="565" d="M82 195v215l223 186l-223 186v215l401 -335v-132z" />
<glyph unicode="&#x205f;" horiz-adv-x="499" />
<glyph unicode="&#x20ac;" d="M0 479l41 168h86v141h-127l41 166h86q0 100 36 192.5t101.5 161t157.5 109.5t207 41q106 0 195 -34.5t154.5 -96t104.5 -143.5t50 -174h-238q-16 100 -86 168.5t-180 68.5q-61 0 -110.5 -23.5t-84.5 -63.5t-53.5 -93t-18.5 -113h426l-40 -166h-386v-141h426l-40 -168 h-386q0 -59 18.5 -112.5t53.5 -93.5t84 -63.5t111 -23.5q61 0 111.5 23.5t85 63.5t54 93.5t19.5 112.5h236q0 -102 -36 -193t-102.5 -161t-160 -110t-207.5 -40q-115 0 -207 41t-157.5 110t-101.5 160t-36 193h-127z" />
<glyph unicode="&#x2122;" horiz-adv-x="1673" d="M82 1311v123h549v-123h-207v-711h-137v711h-205zM770 600v834h223l195 -566l192 566h211v-834h-135v637l-221 -637h-96l-234 668v-668h-135z" />
<glyph unicode="&#xe000;" horiz-adv-x="955" d="M0 0v955h955v-955h-955z" />
<glyph unicode="&#xfb01;" horiz-adv-x="1347" d="M41 768v186h195v119q0 137 37.5 212t92 111t114 43t100.5 7q43 0 76.5 -7t52.5 -18v-188q-23 6 -47.5 10t-51.5 4t-53.5 -2t-48 -16.5t-35.5 -45t-14 -85.5v-144h250v-186h-250v-768h-223v768h-195zM885 1300q0 66 45 112t110 46q66 0 112 -46t46 -112t-46 -110.5 t-112 -44.5t-110.5 44.5t-44.5 110.5zM930 0v954h223v-954h-223z" />
<glyph unicode="&#xfb02;" horiz-adv-x="1257" d="M41 768v186h195v119q0 137 37.5 212t92 111t114 43t100.5 7q43 0 76.5 -7t52.5 -18v-188q-23 6 -47.5 10t-51.5 4t-53.5 -2t-48 -16.5t-35.5 -45t-14 -85.5v-144h250v-186h-250v-768h-223v768h-195zM885 0v1434h223v-1434h-223z" />
</font>
</defs></svg> 